{
	"Version": 3,
	"FileReferences": {
		"Moc": "35_dedevivi.moc3",
		"Textures": [
			"35_dedevivi.1024/texture_00.png"
		],
		"DisplayInfo": "35_dedevivi.cdi3.json"
	},
	"Groups": [
		{
			"Target": "Parameter",
			"Name": "EyeBlink",
			"Ids": []
		},
		{
			"Target": "Parameter",
			"Name": "LipSync",
			"Ids": []
		}
	]
}