[
  {
    "__type__": "cc.AnimationClip",
    "_name": "",
    "_objFlags": 0,
    "_native": "",
    "sample": 30,
    "speed": 1,
    "wrapMode": 2,
    "enableTrsBlending": false,
    "_duration": 4,
    "_hash": 0,
    "_tracks": [
      {
        "__id__": 1
      },
      {
        "__id__": 7
      },
      {
        "__id__": 13
      },
      {
        "__id__": 19
      },
      {
        "__id__": 25
      },
      {
        "__id__": 31
      },
      {
        "__id__": 37
      },
      {
        "__id__": 43
      },
      {
        "__id__": 49
      },
      {
        "__id__": 55
      },
      {
        "__id__": 61
      },
      {
        "__id__": 67
      },
      {
        "__id__": 73
      },
      {
        "__id__": 79
      },
      {
        "__id__": 85
      },
      {
        "__id__": 91
      },
      {
        "__id__": 97
      },
      {
        "__id__": 103
      },
      {
        "__id__": 109
      },
      {
        "__id__": 115
      },
      {
        "__id__": 121
      },
      {
        "__id__": 127
      },
      {
        "__id__": 133
      },
      {
        "__id__": 139
      },
      {
        "__id__": 145
      },
      {
        "__id__": 151
      },
      {
        "__id__": 157
      },
      {
        "__id__": 163
      },
      {
        "__id__": 169
      },
      {
        "__id__": 175
      },
      {
        "__id__": 181
      },
      {
        "__id__": 187
      },
      {
        "__id__": 193
      },
      {
        "__id__": 199
      },
      {
        "__id__": 205
      },
      {
        "__id__": 211
      },
      {
        "__id__": 217
      },
      {
        "__id__": 223
      },
      {
        "__id__": 229
      },
      {
        "__id__": 235
      },
      {
        "__id__": 241
      },
      {
        "__id__": 247
      },
      {
        "__id__": 253
      },
      {
        "__id__": 259
      },
      {
        "__id__": 265
      },
      {
        "__id__": 271
      },
      {
        "__id__": 277
      },
      {
        "__id__": 283
      },
      {
        "__id__": 289
      },
      {
        "__id__": 295
      },
      {
        "__id__": 301
      },
      {
        "__id__": 307
      }
    ],
    "_exoticAnimation": null,
    "_events": [],
    "_embeddedPlayers": []
  },
  {
    "__type__": "cc.animation.RealTrack",
    "_binding": {
      "__type__": "cc.animation.TrackBinding",
      "path": {
        "__id__": 2
      },
      "proxy": null
    },
    "_channel": {
      "__id__": 5
    }
  },
  {
    "__type__": "cc.animation.TrackPath",
    "_paths": [
      {
        "__id__": 3
      },
      {
        "__id__": 4
      },
      "value"
    ]
  },
  {
    "__type__": "cc.animation.HierarchyPath",
    "path": "Parameters/PARAM_ANGLE_X"
  },
  {
    "__type__": "cc.animation.ComponentPath",
    "component": "CubismParameter"
  },
  {
    "__type__": "cc.animation.Channel",
    "_curve": {
      "__id__": 6
    }
  },
  {
    "__type__": "cc.RealCurve",
    "_times": [
      0,
      0.5,
      1.067,
      1.833,
      2.467,
      3.167,
      3.567,
      4
    ],
    "_values": [
      {
        "__type__": "cc.RealKeyframeValue",
        "interpolationMode": 0,
        "tangentWeightMode": 0,
        "value": 0,
        "rightTangent": 0,
        "rightTangentWeight": 0,
        "leftTangent": 0,
        "leftTangentWeight": 0,
        "easingMethod": 0,
        "__editorExtras__": null
      },
      {
        "__type__": "cc.RealKeyframeValue",
        "interpolationMode": 0,
        "tangentWeightMode": 0,
        "value": 0,
        "rightTangent": 0,
        "rightTangentWeight": 0,
        "leftTangent": 0,
        "leftTangentWeight": 0,
        "easingMethod": 0,
        "__editorExtras__": null
      },
      {
        "__type__": "cc.RealKeyframeValue",
        "interpolationMode": 0,
        "tangentWeightMode": 0,
        "value": -30,
        "rightTangent": 0,
        "rightTangentWeight": 0,
        "leftTangent": 0,
        "leftTangentWeight": 0,
        "easingMethod": 0,
        "__editorExtras__": null
      },
      {
        "__type__": "cc.RealKeyframeValue",
        "interpolationMode": 0,
        "tangentWeightMode": 0,
        "value": 0,
        "rightTangent": 0,
        "rightTangentWeight": 0,
        "leftTangent": 0,
        "leftTangentWeight": 0,
        "easingMethod": 0,
        "__editorExtras__": null
      },
      {
        "__type__": "cc.RealKeyframeValue",
        "interpolationMode": 0,
        "tangentWeightMode": 0,
        "value": -20,
        "rightTangent": 0,
        "rightTangentWeight": 0,
        "leftTangent": 0,
        "leftTangentWeight": 0,
        "easingMethod": 0,
        "__editorExtras__": null
      },
      {
        "__type__": "cc.RealKeyframeValue",
        "interpolationMode": 0,
        "tangentWeightMode": 0,
        "value": -4,
        "rightTangent": 0,
        "rightTangentWeight": 0,
        "leftTangent": 0,
        "leftTangentWeight": 0,
        "easingMethod": 0,
        "__editorExtras__": null
      },
      {
        "__type__": "cc.RealKeyframeValue",
        "interpolationMode": 0,
        "tangentWeightMode": 0,
        "value": -5.35,
        "rightTangent": 0,
        "rightTangentWeight": 0,
        "leftTangent": 0,
        "leftTangentWeight": 0,
        "easingMethod": 0,
        "__editorExtras__": null
      },
      {
        "__type__": "cc.RealKeyframeValue",
        "interpolationMode": 0,
        "tangentWeightMode": 0,
        "value": -5.35,
        "rightTangent": 0,
        "rightTangentWeight": 0,
        "leftTangent": 0,
        "leftTangentWeight": 0,
        "easingMethod": 0,
        "__editorExtras__": null
      }
    ],
    "preExtrapolation": 1,
    "postExtrapolation": 1
  },
  {
    "__type__": "cc.animation.RealTrack",
    "_binding": {
      "__type__": "cc.animation.TrackBinding",
      "path": {
        "__id__": 8
      },
      "proxy": null
    },
    "_channel": {
      "__id__": 11
    }
  },
  {
    "__type__": "cc.animation.TrackPath",
    "_paths": [
      {
        "__id__": 9
      },
      {
        "__id__": 10
      },
      "value"
    ]
  },
  {
    "__type__": "cc.animation.HierarchyPath",
    "path": "Parameters/PARAM_ANGLE_Y"
  },
  {
    "__type__": "cc.animation.ComponentPath",
    "component": "CubismParameter"
  },
  {
    "__type__": "cc.animation.Channel",
    "_curve": {
      "__id__": 12
    }
  },
  {
    "__type__": "cc.RealCurve",
    "_times": [
      0,
      0.5,
      1.067,
      2.467,
      4
    ],
    "_values": [
      {
        "__type__": "cc.RealKeyframeValue",
        "interpolationMode": 0,
        "tangentWeightMode": 0,
        "value": 0,
        "rightTangent": 0,
        "rightTangentWeight": 0,
        "leftTangent": 0,
        "leftTangentWeight": 0,
        "easingMethod": 0,
        "__editorExtras__": null
      },
      {
        "__type__": "cc.RealKeyframeValue",
        "interpolationMode": 0,
        "tangentWeightMode": 0,
        "value": 13,
        "rightTangent": 0,
        "rightTangentWeight": 0,
        "leftTangent": 0,
        "leftTangentWeight": 0,
        "easingMethod": 0,
        "__editorExtras__": null
      },
      {
        "__type__": "cc.RealKeyframeValue",
        "interpolationMode": 0,
        "tangentWeightMode": 0,
        "value": -30,
        "rightTangent": 0,
        "rightTangentWeight": 0,
        "leftTangent": 0,
        "leftTangentWeight": 0,
        "easingMethod": 0,
        "__editorExtras__": null
      },
      {
        "__type__": "cc.RealKeyframeValue",
        "interpolationMode": 0,
        "tangentWeightMode": 0,
        "value": -30,
        "rightTangent": 0,
        "rightTangentWeight": 0,
        "leftTangent": 0,
        "leftTangentWeight": 0,
        "easingMethod": 0,
        "__editorExtras__": null
      },
      {
        "__type__": "cc.RealKeyframeValue",
        "interpolationMode": 0,
        "tangentWeightMode": 0,
        "value": -30,
        "rightTangent": 0,
        "rightTangentWeight": 0,
        "leftTangent": 0,
        "leftTangentWeight": 0,
        "easingMethod": 0,
        "__editorExtras__": null
      }
    ],
    "preExtrapolation": 1,
    "postExtrapolation": 1
  },
  {
    "__type__": "cc.animation.RealTrack",
    "_binding": {
      "__type__": "cc.animation.TrackBinding",
      "path": {
        "__id__": 14
      },
      "proxy": null
    },
    "_channel": {
      "__id__": 17
    }
  },
  {
    "__type__": "cc.animation.TrackPath",
    "_paths": [
      {
        "__id__": 15
      },
      {
        "__id__": 16
      },
      "value"
    ]
  },
  {
    "__type__": "cc.animation.HierarchyPath",
    "path": "Parameters/PARAM_ANGLE_Z"
  },
  {
    "__type__": "cc.animation.ComponentPath",
    "component": "CubismParameter"
  },
  {
    "__type__": "cc.animation.Channel",
    "_curve": {
      "__id__": 18
    }
  },
  {
    "__type__": "cc.RealCurve",
    "_times": [
      0,
      0.5,
      1.067,
      1.833,
      2.467,
      3.167,
      3.567,
      4
    ],
    "_values": [
      {
        "__type__": "cc.RealKeyframeValue",
        "interpolationMode": 0,
        "tangentWeightMode": 0,
        "value": 0,
        "rightTangent": 0,
        "rightTangentWeight": 0,
        "leftTangent": 0,
        "leftTangentWeight": 0,
        "easingMethod": 0,
        "__editorExtras__": null
      },
      {
        "__type__": "cc.RealKeyframeValue",
        "interpolationMode": 0,
        "tangentWeightMode": 0,
        "value": 3,
        "rightTangent": 0,
        "rightTangentWeight": 0,
        "leftTangent": 0,
        "leftTangentWeight": 0,
        "easingMethod": 0,
        "__editorExtras__": null
      },
      {
        "__type__": "cc.RealKeyframeValue",
        "interpolationMode": 0,
        "tangentWeightMode": 0,
        "value": -13,
        "rightTangent": 0,
        "rightTangentWeight": 0,
        "leftTangent": 0,
        "leftTangentWeight": 0,
        "easingMethod": 0,
        "__editorExtras__": null
      },
      {
        "__type__": "cc.RealKeyframeValue",
        "interpolationMode": 0,
        "tangentWeightMode": 0,
        "value": -5,
        "rightTangent": 0,
        "rightTangentWeight": 0,
        "leftTangent": 0,
        "leftTangentWeight": 0,
        "easingMethod": 0,
        "__editorExtras__": null
      },
      {
        "__type__": "cc.RealKeyframeValue",
        "interpolationMode": 0,
        "tangentWeightMode": 0,
        "value": -13,
        "rightTangent": 0,
        "rightTangentWeight": 0,
        "leftTangent": 0,
        "leftTangentWeight": 0,
        "easingMethod": 0,
        "__editorExtras__": null
      },
      {
        "__type__": "cc.RealKeyframeValue",
        "interpolationMode": 0,
        "tangentWeightMode": 0,
        "value": -9,
        "rightTangent": 0,
        "rightTangentWeight": 0,
        "leftTangent": 0,
        "leftTangentWeight": 0,
        "easingMethod": 0,
        "__editorExtras__": null
      },
      {
        "__type__": "cc.RealKeyframeValue",
        "interpolationMode": 0,
        "tangentWeightMode": 0,
        "value": -10.275,
        "rightTangent": 0,
        "rightTangentWeight": 0,
        "leftTangent": 0,
        "leftTangentWeight": 0,
        "easingMethod": 0,
        "__editorExtras__": null
      },
      {
        "__type__": "cc.RealKeyframeValue",
        "interpolationMode": 0,
        "tangentWeightMode": 0,
        "value": -10.275,
        "rightTangent": 0,
        "rightTangentWeight": 0,
        "leftTangent": 0,
        "leftTangentWeight": 0,
        "easingMethod": 0,
        "__editorExtras__": null
      }
    ],
    "preExtrapolation": 1,
    "postExtrapolation": 1
  },
  {
    "__type__": "cc.animation.RealTrack",
    "_binding": {
      "__type__": "cc.animation.TrackBinding",
      "path": {
        "__id__": 20
      },
      "proxy": null
    },
    "_channel": {
      "__id__": 23
    }
  },
  {
    "__type__": "cc.animation.TrackPath",
    "_paths": [
      {
        "__id__": 21
      },
      {
        "__id__": 22
      },
      "value"
    ]
  },
  {
    "__type__": "cc.animation.HierarchyPath",
    "path": "Parameters/PARAM_EYE_L_OPEN"
  },
  {
    "__type__": "cc.animation.ComponentPath",
    "component": "CubismParameter"
  },
  {
    "__type__": "cc.animation.Channel",
    "_curve": {
      "__id__": 24
    }
  },
  {
    "__type__": "cc.RealCurve",
    "_times": [
      0,
      0.767,
      0.9,
      0.967,
      1.133,
      2.133,
      2.267,
      2.333,
      2.5,
      4
    ],
    "_values": [
      {
        "__type__": "cc.RealKeyframeValue",
        "interpolationMode": 0,
        "tangentWeightMode": 0,
        "value": 1,
        "rightTangent": 0,
        "rightTangentWeight": 0,
        "leftTangent": 0,
        "leftTangentWeight": 0,
        "easingMethod": 0,
        "__editorExtras__": null
      },
      {
        "__type__": "cc.RealKeyframeValue",
        "interpolationMode": 0,
        "tangentWeightMode": 0,
        "value": 1,
        "rightTangent": 0,
        "rightTangentWeight": 0,
        "leftTangent": 0,
        "leftTangentWeight": 0,
        "easingMethod": 0,
        "__editorExtras__": null
      },
      {
        "__type__": "cc.RealKeyframeValue",
        "interpolationMode": 0,
        "tangentWeightMode": 0,
        "value": 0,
        "rightTangent": 0,
        "rightTangentWeight": 0,
        "leftTangent": 0,
        "leftTangentWeight": 0,
        "easingMethod": 0,
        "__editorExtras__": null
      },
      {
        "__type__": "cc.RealKeyframeValue",
        "interpolationMode": 0,
        "tangentWeightMode": 0,
        "value": 0,
        "rightTangent": 0,
        "rightTangentWeight": 0,
        "leftTangent": 0,
        "leftTangentWeight": 0,
        "easingMethod": 0,
        "__editorExtras__": null
      },
      {
        "__type__": "cc.RealKeyframeValue",
        "interpolationMode": 0,
        "tangentWeightMode": 0,
        "value": 0.78,
        "rightTangent": 0,
        "rightTangentWeight": 0,
        "leftTangent": 0,
        "leftTangentWeight": 0,
        "easingMethod": 0,
        "__editorExtras__": null
      },
      {
        "__type__": "cc.RealKeyframeValue",
        "interpolationMode": 0,
        "tangentWeightMode": 0,
        "value": 0.78,
        "rightTangent": 0,
        "rightTangentWeight": 0,
        "leftTangent": 0,
        "leftTangentWeight": 0,
        "easingMethod": 0,
        "__editorExtras__": null
      },
      {
        "__type__": "cc.RealKeyframeValue",
        "interpolationMode": 0,
        "tangentWeightMode": 0,
        "value": 0,
        "rightTangent": 0,
        "rightTangentWeight": 0,
        "leftTangent": 0,
        "leftTangentWeight": 0,
        "easingMethod": 0,
        "__editorExtras__": null
      },
      {
        "__type__": "cc.RealKeyframeValue",
        "interpolationMode": 0,
        "tangentWeightMode": 0,
        "value": 0,
        "rightTangent": 0,
        "rightTangentWeight": 0,
        "leftTangent": 0,
        "leftTangentWeight": 0,
        "easingMethod": 0,
        "__editorExtras__": null
      },
      {
        "__type__": "cc.RealKeyframeValue",
        "interpolationMode": 0,
        "tangentWeightMode": 0,
        "value": 0.78,
        "rightTangent": 0,
        "rightTangentWeight": 0,
        "leftTangent": 0,
        "leftTangentWeight": 0,
        "easingMethod": 0,
        "__editorExtras__": null
      },
      {
        "__type__": "cc.RealKeyframeValue",
        "interpolationMode": 0,
        "tangentWeightMode": 0,
        "value": 0.78,
        "rightTangent": 0,
        "rightTangentWeight": 0,
        "leftTangent": 0,
        "leftTangentWeight": 0,
        "easingMethod": 0,
        "__editorExtras__": null
      }
    ],
    "preExtrapolation": 1,
    "postExtrapolation": 1
  },
  {
    "__type__": "cc.animation.RealTrack",
    "_binding": {
      "__type__": "cc.animation.TrackBinding",
      "path": {
        "__id__": 26
      },
      "proxy": null
    },
    "_channel": {
      "__id__": 29
    }
  },
  {
    "__type__": "cc.animation.TrackPath",
    "_paths": [
      {
        "__id__": 27
      },
      {
        "__id__": 28
      },
      "value"
    ]
  },
  {
    "__type__": "cc.animation.HierarchyPath",
    "path": "Parameters/PARAM_EYE_L_SMILE"
  },
  {
    "__type__": "cc.animation.ComponentPath",
    "component": "CubismParameter"
  },
  {
    "__type__": "cc.animation.Channel",
    "_curve": {
      "__id__": 30
    }
  },
  {
    "__type__": "cc.RealCurve",
    "_times": [
      0,
      4
    ],
    "_values": [
      {
        "__type__": "cc.RealKeyframeValue",
        "interpolationMode": 0,
        "tangentWeightMode": 0,
        "value": 0,
        "rightTangent": 0,
        "rightTangentWeight": 0,
        "leftTangent": 0,
        "leftTangentWeight": 0,
        "easingMethod": 0,
        "__editorExtras__": null
      },
      {
        "__type__": "cc.RealKeyframeValue",
        "interpolationMode": 0,
        "tangentWeightMode": 0,
        "value": 0,
        "rightTangent": 0,
        "rightTangentWeight": 0,
        "leftTangent": 0,
        "leftTangentWeight": 0,
        "easingMethod": 0,
        "__editorExtras__": null
      }
    ],
    "preExtrapolation": 1,
    "postExtrapolation": 1
  },
  {
    "__type__": "cc.animation.RealTrack",
    "_binding": {
      "__type__": "cc.animation.TrackBinding",
      "path": {
        "__id__": 32
      },
      "proxy": null
    },
    "_channel": {
      "__id__": 35
    }
  },
  {
    "__type__": "cc.animation.TrackPath",
    "_paths": [
      {
        "__id__": 33
      },
      {
        "__id__": 34
      },
      "value"
    ]
  },
  {
    "__type__": "cc.animation.HierarchyPath",
    "path": "Parameters/PARAM_EYE_R_OPEN"
  },
  {
    "__type__": "cc.animation.ComponentPath",
    "component": "CubismParameter"
  },
  {
    "__type__": "cc.animation.Channel",
    "_curve": {
      "__id__": 36
    }
  },
  {
    "__type__": "cc.RealCurve",
    "_times": [
      0,
      0.767,
      0.9,
      0.967,
      1.133,
      2.133,
      2.267,
      2.333,
      2.5,
      4
    ],
    "_values": [
      {
        "__type__": "cc.RealKeyframeValue",
        "interpolationMode": 0,
        "tangentWeightMode": 0,
        "value": 1,
        "rightTangent": 0,
        "rightTangentWeight": 0,
        "leftTangent": 0,
        "leftTangentWeight": 0,
        "easingMethod": 0,
        "__editorExtras__": null
      },
      {
        "__type__": "cc.RealKeyframeValue",
        "interpolationMode": 0,
        "tangentWeightMode": 0,
        "value": 1,
        "rightTangent": 0,
        "rightTangentWeight": 0,
        "leftTangent": 0,
        "leftTangentWeight": 0,
        "easingMethod": 0,
        "__editorExtras__": null
      },
      {
        "__type__": "cc.RealKeyframeValue",
        "interpolationMode": 0,
        "tangentWeightMode": 0,
        "value": 0,
        "rightTangent": 0,
        "rightTangentWeight": 0,
        "leftTangent": 0,
        "leftTangentWeight": 0,
        "easingMethod": 0,
        "__editorExtras__": null
      },
      {
        "__type__": "cc.RealKeyframeValue",
        "interpolationMode": 0,
        "tangentWeightMode": 0,
        "value": 0,
        "rightTangent": 0,
        "rightTangentWeight": 0,
        "leftTangent": 0,
        "leftTangentWeight": 0,
        "easingMethod": 0,
        "__editorExtras__": null
      },
      {
        "__type__": "cc.RealKeyframeValue",
        "interpolationMode": 0,
        "tangentWeightMode": 0,
        "value": 0.76,
        "rightTangent": 0,
        "rightTangentWeight": 0,
        "leftTangent": 0,
        "leftTangentWeight": 0,
        "easingMethod": 0,
        "__editorExtras__": null
      },
      {
        "__type__": "cc.RealKeyframeValue",
        "interpolationMode": 0,
        "tangentWeightMode": 0,
        "value": 0.76,
        "rightTangent": 0,
        "rightTangentWeight": 0,
        "leftTangent": 0,
        "leftTangentWeight": 0,
        "easingMethod": 0,
        "__editorExtras__": null
      },
      {
        "__type__": "cc.RealKeyframeValue",
        "interpolationMode": 0,
        "tangentWeightMode": 0,
        "value": 0,
        "rightTangent": 0,
        "rightTangentWeight": 0,
        "leftTangent": 0,
        "leftTangentWeight": 0,
        "easingMethod": 0,
        "__editorExtras__": null
      },
      {
        "__type__": "cc.RealKeyframeValue",
        "interpolationMode": 0,
        "tangentWeightMode": 0,
        "value": 0,
        "rightTangent": 0,
        "rightTangentWeight": 0,
        "leftTangent": 0,
        "leftTangentWeight": 0,
        "easingMethod": 0,
        "__editorExtras__": null
      },
      {
        "__type__": "cc.RealKeyframeValue",
        "interpolationMode": 0,
        "tangentWeightMode": 0,
        "value": 0.76,
        "rightTangent": 0,
        "rightTangentWeight": 0,
        "leftTangent": 0,
        "leftTangentWeight": 0,
        "easingMethod": 0,
        "__editorExtras__": null
      },
      {
        "__type__": "cc.RealKeyframeValue",
        "interpolationMode": 0,
        "tangentWeightMode": 0,
        "value": 0.76,
        "rightTangent": 0,
        "rightTangentWeight": 0,
        "leftTangent": 0,
        "leftTangentWeight": 0,
        "easingMethod": 0,
        "__editorExtras__": null
      }
    ],
    "preExtrapolation": 1,
    "postExtrapolation": 1
  },
  {
    "__type__": "cc.animation.RealTrack",
    "_binding": {
      "__type__": "cc.animation.TrackBinding",
      "path": {
        "__id__": 38
      },
      "proxy": null
    },
    "_channel": {
      "__id__": 41
    }
  },
  {
    "__type__": "cc.animation.TrackPath",
    "_paths": [
      {
        "__id__": 39
      },
      {
        "__id__": 40
      },
      "value"
    ]
  },
  {
    "__type__": "cc.animation.HierarchyPath",
    "path": "Parameters/PARAM_EYE_R_SMILE"
  },
  {
    "__type__": "cc.animation.ComponentPath",
    "component": "CubismParameter"
  },
  {
    "__type__": "cc.animation.Channel",
    "_curve": {
      "__id__": 42
    }
  },
  {
    "__type__": "cc.RealCurve",
    "_times": [
      0,
      4
    ],
    "_values": [
      {
        "__type__": "cc.RealKeyframeValue",
        "interpolationMode": 0,
        "tangentWeightMode": 0,
        "value": 0,
        "rightTangent": 0,
        "rightTangentWeight": 0,
        "leftTangent": 0,
        "leftTangentWeight": 0,
        "easingMethod": 0,
        "__editorExtras__": null
      },
      {
        "__type__": "cc.RealKeyframeValue",
        "interpolationMode": 0,
        "tangentWeightMode": 0,
        "value": 0,
        "rightTangent": 0,
        "rightTangentWeight": 0,
        "leftTangent": 0,
        "leftTangentWeight": 0,
        "easingMethod": 0,
        "__editorExtras__": null
      }
    ],
    "preExtrapolation": 1,
    "postExtrapolation": 1
  },
  {
    "__type__": "cc.animation.RealTrack",
    "_binding": {
      "__type__": "cc.animation.TrackBinding",
      "path": {
        "__id__": 44
      },
      "proxy": null
    },
    "_channel": {
      "__id__": 47
    }
  },
  {
    "__type__": "cc.animation.TrackPath",
    "_paths": [
      {
        "__id__": 45
      },
      {
        "__id__": 46
      },
      "value"
    ]
  },
  {
    "__type__": "cc.animation.HierarchyPath",
    "path": "Parameters/PARAM_EYE_BALL_X"
  },
  {
    "__type__": "cc.animation.ComponentPath",
    "component": "CubismParameter"
  },
  {
    "__type__": "cc.animation.Channel",
    "_curve": {
      "__id__": 48
    }
  },
  {
    "__type__": "cc.RealCurve",
    "_times": [
      0,
      0.5,
      0.9,
      0.967,
      4
    ],
    "_values": [
      {
        "__type__": "cc.RealKeyframeValue",
        "interpolationMode": 0,
        "tangentWeightMode": 0,
        "value": 0,
        "rightTangent": 0,
        "rightTangentWeight": 0,
        "leftTangent": 0,
        "leftTangentWeight": 0,
        "easingMethod": 0,
        "__editorExtras__": null
      },
      {
        "__type__": "cc.RealKeyframeValue",
        "interpolationMode": 0,
        "tangentWeightMode": 0,
        "value": 0.31,
        "rightTangent": 0.5850000000000001,
        "rightTangentWeight": 0,
        "leftTangent": 0.5820000000000001,
        "leftTangentWeight": 0,
        "easingMethod": 0,
        "__editorExtras__": null
      },
      {
        "__type__": "cc.RealKeyframeValue",
        "interpolationMode": 0,
        "tangentWeightMode": 0,
        "value": 0.38,
        "rightTangent": 0,
        "rightTangentWeight": 0,
        "leftTangent": 0,
        "leftTangentWeight": 0,
        "easingMethod": 0,
        "__editorExtras__": null
      },
      {
        "__type__": "cc.RealKeyframeValue",
        "interpolationMode": 0,
        "tangentWeightMode": 0,
        "value": -0.52,
        "rightTangent": 0,
        "rightTangentWeight": 0,
        "leftTangent": 0,
        "leftTangentWeight": 0,
        "easingMethod": 0,
        "__editorExtras__": null
      },
      {
        "__type__": "cc.RealKeyframeValue",
        "interpolationMode": 0,
        "tangentWeightMode": 0,
        "value": -0.52,
        "rightTangent": 0,
        "rightTangentWeight": 0,
        "leftTangent": 0,
        "leftTangentWeight": 0,
        "easingMethod": 0,
        "__editorExtras__": null
      }
    ],
    "preExtrapolation": 1,
    "postExtrapolation": 1
  },
  {
    "__type__": "cc.animation.RealTrack",
    "_binding": {
      "__type__": "cc.animation.TrackBinding",
      "path": {
        "__id__": 50
      },
      "proxy": null
    },
    "_channel": {
      "__id__": 53
    }
  },
  {
    "__type__": "cc.animation.TrackPath",
    "_paths": [
      {
        "__id__": 51
      },
      {
        "__id__": 52
      },
      "value"
    ]
  },
  {
    "__type__": "cc.animation.HierarchyPath",
    "path": "Parameters/PARAM_EYE_BALL_Y"
  },
  {
    "__type__": "cc.animation.ComponentPath",
    "component": "CubismParameter"
  },
  {
    "__type__": "cc.animation.Channel",
    "_curve": {
      "__id__": 54
    }
  },
  {
    "__type__": "cc.RealCurve",
    "_times": [
      0,
      0.5,
      0.9,
      0.967,
      4
    ],
    "_values": [
      {
        "__type__": "cc.RealKeyframeValue",
        "interpolationMode": 0,
        "tangentWeightMode": 0,
        "value": 0,
        "rightTangent": 0,
        "rightTangentWeight": 0,
        "leftTangent": 0,
        "leftTangentWeight": 0,
        "easingMethod": 0,
        "__editorExtras__": null
      },
      {
        "__type__": "cc.RealKeyframeValue",
        "interpolationMode": 0,
        "tangentWeightMode": 0,
        "value": -0.21,
        "rightTangent": -1.0725,
        "rightTangentWeight": 0,
        "leftTangent": -1.074,
        "leftTangentWeight": 0,
        "easingMethod": 0,
        "__editorExtras__": null
      },
      {
        "__type__": "cc.RealKeyframeValue",
        "interpolationMode": 0,
        "tangentWeightMode": 0,
        "value": -0.54,
        "rightTangent": 0,
        "rightTangentWeight": 0,
        "leftTangent": 0,
        "leftTangentWeight": 0,
        "easingMethod": 0,
        "__editorExtras__": null
      },
      {
        "__type__": "cc.RealKeyframeValue",
        "interpolationMode": 0,
        "tangentWeightMode": 0,
        "value": -0.5,
        "rightTangent": 0,
        "rightTangentWeight": 0,
        "leftTangent": 0,
        "leftTangentWeight": 0,
        "easingMethod": 0,
        "__editorExtras__": null
      },
      {
        "__type__": "cc.RealKeyframeValue",
        "interpolationMode": 0,
        "tangentWeightMode": 0,
        "value": -0.5,
        "rightTangent": 0,
        "rightTangentWeight": 0,
        "leftTangent": 0,
        "leftTangentWeight": 0,
        "easingMethod": 0,
        "__editorExtras__": null
      }
    ],
    "preExtrapolation": 1,
    "postExtrapolation": 1
  },
  {
    "__type__": "cc.animation.RealTrack",
    "_binding": {
      "__type__": "cc.animation.TrackBinding",
      "path": {
        "__id__": 56
      },
      "proxy": null
    },
    "_channel": {
      "__id__": 59
    }
  },
  {
    "__type__": "cc.animation.TrackPath",
    "_paths": [
      {
        "__id__": 57
      },
      {
        "__id__": 58
      },
      "value"
    ]
  },
  {
    "__type__": "cc.animation.HierarchyPath",
    "path": "Parameters/PARAM_EYE_SIZE"
  },
  {
    "__type__": "cc.animation.ComponentPath",
    "component": "CubismParameter"
  },
  {
    "__type__": "cc.animation.Channel",
    "_curve": {
      "__id__": 60
    }
  },
  {
    "__type__": "cc.RealCurve",
    "_times": [
      0,
      4
    ],
    "_values": [
      {
        "__type__": "cc.RealKeyframeValue",
        "interpolationMode": 0,
        "tangentWeightMode": 0,
        "value": 0,
        "rightTangent": 0,
        "rightTangentWeight": 0,
        "leftTangent": 0,
        "leftTangentWeight": 0,
        "easingMethod": 0,
        "__editorExtras__": null
      },
      {
        "__type__": "cc.RealKeyframeValue",
        "interpolationMode": 0,
        "tangentWeightMode": 0,
        "value": 0,
        "rightTangent": 0,
        "rightTangentWeight": 0,
        "leftTangent": 0,
        "leftTangentWeight": 0,
        "easingMethod": 0,
        "__editorExtras__": null
      }
    ],
    "preExtrapolation": 1,
    "postExtrapolation": 1
  },
  {
    "__type__": "cc.animation.RealTrack",
    "_binding": {
      "__type__": "cc.animation.TrackBinding",
      "path": {
        "__id__": 62
      },
      "proxy": null
    },
    "_channel": {
      "__id__": 65
    }
  },
  {
    "__type__": "cc.animation.TrackPath",
    "_paths": [
      {
        "__id__": 63
      },
      {
        "__id__": 64
      },
      "value"
    ]
  },
  {
    "__type__": "cc.animation.HierarchyPath",
    "path": "Parameters/PARAM_EYE_HI"
  },
  {
    "__type__": "cc.animation.ComponentPath",
    "component": "CubismParameter"
  },
  {
    "__type__": "cc.animation.Channel",
    "_curve": {
      "__id__": 66
    }
  },
  {
    "__type__": "cc.RealCurve",
    "_times": [
      0,
      4
    ],
    "_values": [
      {
        "__type__": "cc.RealKeyframeValue",
        "interpolationMode": 0,
        "tangentWeightMode": 0,
        "value": 1,
        "rightTangent": 0,
        "rightTangentWeight": 0,
        "leftTangent": 0,
        "leftTangentWeight": 0,
        "easingMethod": 0,
        "__editorExtras__": null
      },
      {
        "__type__": "cc.RealKeyframeValue",
        "interpolationMode": 0,
        "tangentWeightMode": 0,
        "value": 1,
        "rightTangent": 0,
        "rightTangentWeight": 0,
        "leftTangent": 0,
        "leftTangentWeight": 0,
        "easingMethod": 0,
        "__editorExtras__": null
      }
    ],
    "preExtrapolation": 1,
    "postExtrapolation": 1
  },
  {
    "__type__": "cc.animation.RealTrack",
    "_binding": {
      "__type__": "cc.animation.TrackBinding",
      "path": {
        "__id__": 68
      },
      "proxy": null
    },
    "_channel": {
      "__id__": 71
    }
  },
  {
    "__type__": "cc.animation.TrackPath",
    "_paths": [
      {
        "__id__": 69
      },
      {
        "__id__": 70
      },
      "value"
    ]
  },
  {
    "__type__": "cc.animation.HierarchyPath",
    "path": "Parameters/PARAM_EYE_01"
  },
  {
    "__type__": "cc.animation.ComponentPath",
    "component": "CubismParameter"
  },
  {
    "__type__": "cc.animation.Channel",
    "_curve": {
      "__id__": 72
    }
  },
  {
    "__type__": "cc.RealCurve",
    "_times": [
      0,
      4
    ],
    "_values": [
      {
        "__type__": "cc.RealKeyframeValue",
        "interpolationMode": 0,
        "tangentWeightMode": 0,
        "value": 0,
        "rightTangent": 0,
        "rightTangentWeight": 0,
        "leftTangent": 0,
        "leftTangentWeight": 0,
        "easingMethod": 0,
        "__editorExtras__": null
      },
      {
        "__type__": "cc.RealKeyframeValue",
        "interpolationMode": 0,
        "tangentWeightMode": 0,
        "value": 0,
        "rightTangent": 0,
        "rightTangentWeight": 0,
        "leftTangent": 0,
        "leftTangentWeight": 0,
        "easingMethod": 0,
        "__editorExtras__": null
      }
    ],
    "preExtrapolation": 1,
    "postExtrapolation": 1
  },
  {
    "__type__": "cc.animation.RealTrack",
    "_binding": {
      "__type__": "cc.animation.TrackBinding",
      "path": {
        "__id__": 74
      },
      "proxy": null
    },
    "_channel": {
      "__id__": 77
    }
  },
  {
    "__type__": "cc.animation.TrackPath",
    "_paths": [
      {
        "__id__": 75
      },
      {
        "__id__": 76
      },
      "value"
    ]
  },
  {
    "__type__": "cc.animation.HierarchyPath",
    "path": "Parameters/PARAM_TEAR_L"
  },
  {
    "__type__": "cc.animation.ComponentPath",
    "component": "CubismParameter"
  },
  {
    "__type__": "cc.animation.Channel",
    "_curve": {
      "__id__": 78
    }
  },
  {
    "__type__": "cc.RealCurve",
    "_times": [
      0,
      4
    ],
    "_values": [
      {
        "__type__": "cc.RealKeyframeValue",
        "interpolationMode": 0,
        "tangentWeightMode": 0,
        "value": 0,
        "rightTangent": 0,
        "rightTangentWeight": 0,
        "leftTangent": 0,
        "leftTangentWeight": 0,
        "easingMethod": 0,
        "__editorExtras__": null
      },
      {
        "__type__": "cc.RealKeyframeValue",
        "interpolationMode": 0,
        "tangentWeightMode": 0,
        "value": 0,
        "rightTangent": 0,
        "rightTangentWeight": 0,
        "leftTangent": 0,
        "leftTangentWeight": 0,
        "easingMethod": 0,
        "__editorExtras__": null
      }
    ],
    "preExtrapolation": 1,
    "postExtrapolation": 1
  },
  {
    "__type__": "cc.animation.RealTrack",
    "_binding": {
      "__type__": "cc.animation.TrackBinding",
      "path": {
        "__id__": 80
      },
      "proxy": null
    },
    "_channel": {
      "__id__": 83
    }
  },
  {
    "__type__": "cc.animation.TrackPath",
    "_paths": [
      {
        "__id__": 81
      },
      {
        "__id__": 82
      },
      "value"
    ]
  },
  {
    "__type__": "cc.animation.HierarchyPath",
    "path": "Parameters/PARAM_TEAR_R"
  },
  {
    "__type__": "cc.animation.ComponentPath",
    "component": "CubismParameter"
  },
  {
    "__type__": "cc.animation.Channel",
    "_curve": {
      "__id__": 84
    }
  },
  {
    "__type__": "cc.RealCurve",
    "_times": [
      0,
      4
    ],
    "_values": [
      {
        "__type__": "cc.RealKeyframeValue",
        "interpolationMode": 0,
        "tangentWeightMode": 0,
        "value": 0,
        "rightTangent": 0,
        "rightTangentWeight": 0,
        "leftTangent": 0,
        "leftTangentWeight": 0,
        "easingMethod": 0,
        "__editorExtras__": null
      },
      {
        "__type__": "cc.RealKeyframeValue",
        "interpolationMode": 0,
        "tangentWeightMode": 0,
        "value": 0,
        "rightTangent": 0,
        "rightTangentWeight": 0,
        "leftTangent": 0,
        "leftTangentWeight": 0,
        "easingMethod": 0,
        "__editorExtras__": null
      }
    ],
    "preExtrapolation": 1,
    "postExtrapolation": 1
  },
  {
    "__type__": "cc.animation.RealTrack",
    "_binding": {
      "__type__": "cc.animation.TrackBinding",
      "path": {
        "__id__": 86
      },
      "proxy": null
    },
    "_channel": {
      "__id__": 89
    }
  },
  {
    "__type__": "cc.animation.TrackPath",
    "_paths": [
      {
        "__id__": 87
      },
      {
        "__id__": 88
      },
      "value"
    ]
  },
  {
    "__type__": "cc.animation.HierarchyPath",
    "path": "Parameters/PARAM_BROW_L_Y"
  },
  {
    "__type__": "cc.animation.ComponentPath",
    "component": "CubismParameter"
  },
  {
    "__type__": "cc.animation.Channel",
    "_curve": {
      "__id__": 90
    }
  },
  {
    "__type__": "cc.RealCurve",
    "_times": [
      0,
      4
    ],
    "_values": [
      {
        "__type__": "cc.RealKeyframeValue",
        "interpolationMode": 0,
        "tangentWeightMode": 0,
        "value": -1,
        "rightTangent": 0,
        "rightTangentWeight": 0,
        "leftTangent": 0,
        "leftTangentWeight": 0,
        "easingMethod": 0,
        "__editorExtras__": null
      },
      {
        "__type__": "cc.RealKeyframeValue",
        "interpolationMode": 0,
        "tangentWeightMode": 0,
        "value": -1,
        "rightTangent": 0,
        "rightTangentWeight": 0,
        "leftTangent": 0,
        "leftTangentWeight": 0,
        "easingMethod": 0,
        "__editorExtras__": null
      }
    ],
    "preExtrapolation": 1,
    "postExtrapolation": 1
  },
  {
    "__type__": "cc.animation.RealTrack",
    "_binding": {
      "__type__": "cc.animation.TrackBinding",
      "path": {
        "__id__": 92
      },
      "proxy": null
    },
    "_channel": {
      "__id__": 95
    }
  },
  {
    "__type__": "cc.animation.TrackPath",
    "_paths": [
      {
        "__id__": 93
      },
      {
        "__id__": 94
      },
      "value"
    ]
  },
  {
    "__type__": "cc.animation.HierarchyPath",
    "path": "Parameters/PARAM_BROW_R_Y"
  },
  {
    "__type__": "cc.animation.ComponentPath",
    "component": "CubismParameter"
  },
  {
    "__type__": "cc.animation.Channel",
    "_curve": {
      "__id__": 96
    }
  },
  {
    "__type__": "cc.RealCurve",
    "_times": [
      0,
      4
    ],
    "_values": [
      {
        "__type__": "cc.RealKeyframeValue",
        "interpolationMode": 0,
        "tangentWeightMode": 0,
        "value": -1,
        "rightTangent": 0,
        "rightTangentWeight": 0,
        "leftTangent": 0,
        "leftTangentWeight": 0,
        "easingMethod": 0,
        "__editorExtras__": null
      },
      {
        "__type__": "cc.RealKeyframeValue",
        "interpolationMode": 0,
        "tangentWeightMode": 0,
        "value": -1,
        "rightTangent": 0,
        "rightTangentWeight": 0,
        "leftTangent": 0,
        "leftTangentWeight": 0,
        "easingMethod": 0,
        "__editorExtras__": null
      }
    ],
    "preExtrapolation": 1,
    "postExtrapolation": 1
  },
  {
    "__type__": "cc.animation.RealTrack",
    "_binding": {
      "__type__": "cc.animation.TrackBinding",
      "path": {
        "__id__": 98
      },
      "proxy": null
    },
    "_channel": {
      "__id__": 101
    }
  },
  {
    "__type__": "cc.animation.TrackPath",
    "_paths": [
      {
        "__id__": 99
      },
      {
        "__id__": 100
      },
      "value"
    ]
  },
  {
    "__type__": "cc.animation.HierarchyPath",
    "path": "Parameters/PARAM_BROW_L_X"
  },
  {
    "__type__": "cc.animation.ComponentPath",
    "component": "CubismParameter"
  },
  {
    "__type__": "cc.animation.Channel",
    "_curve": {
      "__id__": 102
    }
  },
  {
    "__type__": "cc.RealCurve",
    "_times": [
      0,
      4
    ],
    "_values": [
      {
        "__type__": "cc.RealKeyframeValue",
        "interpolationMode": 0,
        "tangentWeightMode": 0,
        "value": -1,
        "rightTangent": 0,
        "rightTangentWeight": 0,
        "leftTangent": 0,
        "leftTangentWeight": 0,
        "easingMethod": 0,
        "__editorExtras__": null
      },
      {
        "__type__": "cc.RealKeyframeValue",
        "interpolationMode": 0,
        "tangentWeightMode": 0,
        "value": -1,
        "rightTangent": 0,
        "rightTangentWeight": 0,
        "leftTangent": 0,
        "leftTangentWeight": 0,
        "easingMethod": 0,
        "__editorExtras__": null
      }
    ],
    "preExtrapolation": 1,
    "postExtrapolation": 1
  },
  {
    "__type__": "cc.animation.RealTrack",
    "_binding": {
      "__type__": "cc.animation.TrackBinding",
      "path": {
        "__id__": 104
      },
      "proxy": null
    },
    "_channel": {
      "__id__": 107
    }
  },
  {
    "__type__": "cc.animation.TrackPath",
    "_paths": [
      {
        "__id__": 105
      },
      {
        "__id__": 106
      },
      "value"
    ]
  },
  {
    "__type__": "cc.animation.HierarchyPath",
    "path": "Parameters/PARAM_BROW_R_X"
  },
  {
    "__type__": "cc.animation.ComponentPath",
    "component": "CubismParameter"
  },
  {
    "__type__": "cc.animation.Channel",
    "_curve": {
      "__id__": 108
    }
  },
  {
    "__type__": "cc.RealCurve",
    "_times": [
      0,
      4
    ],
    "_values": [
      {
        "__type__": "cc.RealKeyframeValue",
        "interpolationMode": 0,
        "tangentWeightMode": 0,
        "value": -1,
        "rightTangent": 0,
        "rightTangentWeight": 0,
        "leftTangent": 0,
        "leftTangentWeight": 0,
        "easingMethod": 0,
        "__editorExtras__": null
      },
      {
        "__type__": "cc.RealKeyframeValue",
        "interpolationMode": 0,
        "tangentWeightMode": 0,
        "value": -1,
        "rightTangent": 0,
        "rightTangentWeight": 0,
        "leftTangent": 0,
        "leftTangentWeight": 0,
        "easingMethod": 0,
        "__editorExtras__": null
      }
    ],
    "preExtrapolation": 1,
    "postExtrapolation": 1
  },
  {
    "__type__": "cc.animation.RealTrack",
    "_binding": {
      "__type__": "cc.animation.TrackBinding",
      "path": {
        "__id__": 110
      },
      "proxy": null
    },
    "_channel": {
      "__id__": 113
    }
  },
  {
    "__type__": "cc.animation.TrackPath",
    "_paths": [
      {
        "__id__": 111
      },
      {
        "__id__": 112
      },
      "value"
    ]
  },
  {
    "__type__": "cc.animation.HierarchyPath",
    "path": "Parameters/PARAM_BROW_L_ANGLE"
  },
  {
    "__type__": "cc.animation.ComponentPath",
    "component": "CubismParameter"
  },
  {
    "__type__": "cc.animation.Channel",
    "_curve": {
      "__id__": 114
    }
  },
  {
    "__type__": "cc.RealCurve",
    "_times": [
      0,
      4
    ],
    "_values": [
      {
        "__type__": "cc.RealKeyframeValue",
        "interpolationMode": 0,
        "tangentWeightMode": 0,
        "value": -0.43,
        "rightTangent": 0,
        "rightTangentWeight": 0,
        "leftTangent": 0,
        "leftTangentWeight": 0,
        "easingMethod": 0,
        "__editorExtras__": null
      },
      {
        "__type__": "cc.RealKeyframeValue",
        "interpolationMode": 0,
        "tangentWeightMode": 0,
        "value": -0.43,
        "rightTangent": 0,
        "rightTangentWeight": 0,
        "leftTangent": 0,
        "leftTangentWeight": 0,
        "easingMethod": 0,
        "__editorExtras__": null
      }
    ],
    "preExtrapolation": 1,
    "postExtrapolation": 1
  },
  {
    "__type__": "cc.animation.RealTrack",
    "_binding": {
      "__type__": "cc.animation.TrackBinding",
      "path": {
        "__id__": 116
      },
      "proxy": null
    },
    "_channel": {
      "__id__": 119
    }
  },
  {
    "__type__": "cc.animation.TrackPath",
    "_paths": [
      {
        "__id__": 117
      },
      {
        "__id__": 118
      },
      "value"
    ]
  },
  {
    "__type__": "cc.animation.HierarchyPath",
    "path": "Parameters/PARAM_BROW_R_ANGLE"
  },
  {
    "__type__": "cc.animation.ComponentPath",
    "component": "CubismParameter"
  },
  {
    "__type__": "cc.animation.Channel",
    "_curve": {
      "__id__": 120
    }
  },
  {
    "__type__": "cc.RealCurve",
    "_times": [
      0,
      4
    ],
    "_values": [
      {
        "__type__": "cc.RealKeyframeValue",
        "interpolationMode": 0,
        "tangentWeightMode": 0,
        "value": -0.45,
        "rightTangent": 0,
        "rightTangentWeight": 0,
        "leftTangent": 0,
        "leftTangentWeight": 0,
        "easingMethod": 0,
        "__editorExtras__": null
      },
      {
        "__type__": "cc.RealKeyframeValue",
        "interpolationMode": 0,
        "tangentWeightMode": 0,
        "value": -0.45,
        "rightTangent": 0,
        "rightTangentWeight": 0,
        "leftTangent": 0,
        "leftTangentWeight": 0,
        "easingMethod": 0,
        "__editorExtras__": null
      }
    ],
    "preExtrapolation": 1,
    "postExtrapolation": 1
  },
  {
    "__type__": "cc.animation.RealTrack",
    "_binding": {
      "__type__": "cc.animation.TrackBinding",
      "path": {
        "__id__": 122
      },
      "proxy": null
    },
    "_channel": {
      "__id__": 125
    }
  },
  {
    "__type__": "cc.animation.TrackPath",
    "_paths": [
      {
        "__id__": 123
      },
      {
        "__id__": 124
      },
      "value"
    ]
  },
  {
    "__type__": "cc.animation.HierarchyPath",
    "path": "Parameters/PARAM_BROW_L_FORM"
  },
  {
    "__type__": "cc.animation.ComponentPath",
    "component": "CubismParameter"
  },
  {
    "__type__": "cc.animation.Channel",
    "_curve": {
      "__id__": 126
    }
  },
  {
    "__type__": "cc.RealCurve",
    "_times": [
      0,
      4
    ],
    "_values": [
      {
        "__type__": "cc.RealKeyframeValue",
        "interpolationMode": 0,
        "tangentWeightMode": 0,
        "value": -1,
        "rightTangent": 0,
        "rightTangentWeight": 0,
        "leftTangent": 0,
        "leftTangentWeight": 0,
        "easingMethod": 0,
        "__editorExtras__": null
      },
      {
        "__type__": "cc.RealKeyframeValue",
        "interpolationMode": 0,
        "tangentWeightMode": 0,
        "value": -1,
        "rightTangent": 0,
        "rightTangentWeight": 0,
        "leftTangent": 0,
        "leftTangentWeight": 0,
        "easingMethod": 0,
        "__editorExtras__": null
      }
    ],
    "preExtrapolation": 1,
    "postExtrapolation": 1
  },
  {
    "__type__": "cc.animation.RealTrack",
    "_binding": {
      "__type__": "cc.animation.TrackBinding",
      "path": {
        "__id__": 128
      },
      "proxy": null
    },
    "_channel": {
      "__id__": 131
    }
  },
  {
    "__type__": "cc.animation.TrackPath",
    "_paths": [
      {
        "__id__": 129
      },
      {
        "__id__": 130
      },
      "value"
    ]
  },
  {
    "__type__": "cc.animation.HierarchyPath",
    "path": "Parameters/PARAM_BROW_R_FORM"
  },
  {
    "__type__": "cc.animation.ComponentPath",
    "component": "CubismParameter"
  },
  {
    "__type__": "cc.animation.Channel",
    "_curve": {
      "__id__": 132
    }
  },
  {
    "__type__": "cc.RealCurve",
    "_times": [
      0,
      4
    ],
    "_values": [
      {
        "__type__": "cc.RealKeyframeValue",
        "interpolationMode": 0,
        "tangentWeightMode": 0,
        "value": -1,
        "rightTangent": 0,
        "rightTangentWeight": 0,
        "leftTangent": 0,
        "leftTangentWeight": 0,
        "easingMethod": 0,
        "__editorExtras__": null
      },
      {
        "__type__": "cc.RealKeyframeValue",
        "interpolationMode": 0,
        "tangentWeightMode": 0,
        "value": -1,
        "rightTangent": 0,
        "rightTangentWeight": 0,
        "leftTangent": 0,
        "leftTangentWeight": 0,
        "easingMethod": 0,
        "__editorExtras__": null
      }
    ],
    "preExtrapolation": 1,
    "postExtrapolation": 1
  },
  {
    "__type__": "cc.animation.RealTrack",
    "_binding": {
      "__type__": "cc.animation.TrackBinding",
      "path": {
        "__id__": 134
      },
      "proxy": null
    },
    "_channel": {
      "__id__": 137
    }
  },
  {
    "__type__": "cc.animation.TrackPath",
    "_paths": [
      {
        "__id__": 135
      },
      {
        "__id__": 136
      },
      "value"
    ]
  },
  {
    "__type__": "cc.animation.HierarchyPath",
    "path": "Parameters/PARAM_MOUTH_FORM"
  },
  {
    "__type__": "cc.animation.ComponentPath",
    "component": "CubismParameter"
  },
  {
    "__type__": "cc.animation.Channel",
    "_curve": {
      "__id__": 138
    }
  },
  {
    "__type__": "cc.RealCurve",
    "_times": [
      0,
      4
    ],
    "_values": [
      {
        "__type__": "cc.RealKeyframeValue",
        "interpolationMode": 0,
        "tangentWeightMode": 0,
        "value": -1,
        "rightTangent": 0,
        "rightTangentWeight": 0,
        "leftTangent": 0,
        "leftTangentWeight": 0,
        "easingMethod": 0,
        "__editorExtras__": null
      },
      {
        "__type__": "cc.RealKeyframeValue",
        "interpolationMode": 0,
        "tangentWeightMode": 0,
        "value": -1,
        "rightTangent": 0,
        "rightTangentWeight": 0,
        "leftTangent": 0,
        "leftTangentWeight": 0,
        "easingMethod": 0,
        "__editorExtras__": null
      }
    ],
    "preExtrapolation": 1,
    "postExtrapolation": 1
  },
  {
    "__type__": "cc.animation.RealTrack",
    "_binding": {
      "__type__": "cc.animation.TrackBinding",
      "path": {
        "__id__": 140
      },
      "proxy": null
    },
    "_channel": {
      "__id__": 143
    }
  },
  {
    "__type__": "cc.animation.TrackPath",
    "_paths": [
      {
        "__id__": 141
      },
      {
        "__id__": 142
      },
      "value"
    ]
  },
  {
    "__type__": "cc.animation.HierarchyPath",
    "path": "Parameters/PARAM_MOUTH_OPEN_Y"
  },
  {
    "__type__": "cc.animation.ComponentPath",
    "component": "CubismParameter"
  },
  {
    "__type__": "cc.animation.Channel",
    "_curve": {
      "__id__": 144
    }
  },
  {
    "__type__": "cc.RealCurve",
    "_times": [
      0,
      4
    ],
    "_values": [
      {
        "__type__": "cc.RealKeyframeValue",
        "interpolationMode": 0,
        "tangentWeightMode": 0,
        "value": 0,
        "rightTangent": 0,
        "rightTangentWeight": 0,
        "leftTangent": 0,
        "leftTangentWeight": 0,
        "easingMethod": 0,
        "__editorExtras__": null
      },
      {
        "__type__": "cc.RealKeyframeValue",
        "interpolationMode": 0,
        "tangentWeightMode": 0,
        "value": 0,
        "rightTangent": 0,
        "rightTangentWeight": 0,
        "leftTangent": 0,
        "leftTangentWeight": 0,
        "easingMethod": 0,
        "__editorExtras__": null
      }
    ],
    "preExtrapolation": 1,
    "postExtrapolation": 1
  },
  {
    "__type__": "cc.animation.RealTrack",
    "_binding": {
      "__type__": "cc.animation.TrackBinding",
      "path": {
        "__id__": 146
      },
      "proxy": null
    },
    "_channel": {
      "__id__": 149
    }
  },
  {
    "__type__": "cc.animation.TrackPath",
    "_paths": [
      {
        "__id__": 147
      },
      {
        "__id__": 148
      },
      "value"
    ]
  },
  {
    "__type__": "cc.animation.HierarchyPath",
    "path": "Parameters/PARAM_MOUTH_FORM_02"
  },
  {
    "__type__": "cc.animation.ComponentPath",
    "component": "CubismParameter"
  },
  {
    "__type__": "cc.animation.Channel",
    "_curve": {
      "__id__": 150
    }
  },
  {
    "__type__": "cc.RealCurve",
    "_times": [
      0,
      4
    ],
    "_values": [
      {
        "__type__": "cc.RealKeyframeValue",
        "interpolationMode": 0,
        "tangentWeightMode": 0,
        "value": 0,
        "rightTangent": 0,
        "rightTangentWeight": 0,
        "leftTangent": 0,
        "leftTangentWeight": 0,
        "easingMethod": 0,
        "__editorExtras__": null
      },
      {
        "__type__": "cc.RealKeyframeValue",
        "interpolationMode": 0,
        "tangentWeightMode": 0,
        "value": 0,
        "rightTangent": 0,
        "rightTangentWeight": 0,
        "leftTangent": 0,
        "leftTangentWeight": 0,
        "easingMethod": 0,
        "__editorExtras__": null
      }
    ],
    "preExtrapolation": 1,
    "postExtrapolation": 1
  },
  {
    "__type__": "cc.animation.RealTrack",
    "_binding": {
      "__type__": "cc.animation.TrackBinding",
      "path": {
        "__id__": 152
      },
      "proxy": null
    },
    "_channel": {
      "__id__": 155
    }
  },
  {
    "__type__": "cc.animation.TrackPath",
    "_paths": [
      {
        "__id__": 153
      },
      {
        "__id__": 154
      },
      "value"
    ]
  },
  {
    "__type__": "cc.animation.HierarchyPath",
    "path": "Parameters/PARAM_DROOL"
  },
  {
    "__type__": "cc.animation.ComponentPath",
    "component": "CubismParameter"
  },
  {
    "__type__": "cc.animation.Channel",
    "_curve": {
      "__id__": 156
    }
  },
  {
    "__type__": "cc.RealCurve",
    "_times": [
      0,
      4
    ],
    "_values": [
      {
        "__type__": "cc.RealKeyframeValue",
        "interpolationMode": 0,
        "tangentWeightMode": 0,
        "value": 0,
        "rightTangent": 0,
        "rightTangentWeight": 0,
        "leftTangent": 0,
        "leftTangentWeight": 0,
        "easingMethod": 0,
        "__editorExtras__": null
      },
      {
        "__type__": "cc.RealKeyframeValue",
        "interpolationMode": 0,
        "tangentWeightMode": 0,
        "value": 0,
        "rightTangent": 0,
        "rightTangentWeight": 0,
        "leftTangent": 0,
        "leftTangentWeight": 0,
        "easingMethod": 0,
        "__editorExtras__": null
      }
    ],
    "preExtrapolation": 1,
    "postExtrapolation": 1
  },
  {
    "__type__": "cc.animation.RealTrack",
    "_binding": {
      "__type__": "cc.animation.TrackBinding",
      "path": {
        "__id__": 158
      },
      "proxy": null
    },
    "_channel": {
      "__id__": 161
    }
  },
  {
    "__type__": "cc.animation.TrackPath",
    "_paths": [
      {
        "__id__": 159
      },
      {
        "__id__": 160
      },
      "value"
    ]
  },
  {
    "__type__": "cc.animation.HierarchyPath",
    "path": "Parameters/PARAM_CHEEK"
  },
  {
    "__type__": "cc.animation.ComponentPath",
    "component": "CubismParameter"
  },
  {
    "__type__": "cc.animation.Channel",
    "_curve": {
      "__id__": 162
    }
  },
  {
    "__type__": "cc.RealCurve",
    "_times": [
      0,
      4
    ],
    "_values": [
      {
        "__type__": "cc.RealKeyframeValue",
        "interpolationMode": 0,
        "tangentWeightMode": 0,
        "value": 0,
        "rightTangent": 0,
        "rightTangentWeight": 0,
        "leftTangent": 0,
        "leftTangentWeight": 0,
        "easingMethod": 0,
        "__editorExtras__": null
      },
      {
        "__type__": "cc.RealKeyframeValue",
        "interpolationMode": 0,
        "tangentWeightMode": 0,
        "value": 0,
        "rightTangent": 0,
        "rightTangentWeight": 0,
        "leftTangent": 0,
        "leftTangentWeight": 0,
        "easingMethod": 0,
        "__editorExtras__": null
      }
    ],
    "preExtrapolation": 1,
    "postExtrapolation": 1
  },
  {
    "__type__": "cc.animation.RealTrack",
    "_binding": {
      "__type__": "cc.animation.TrackBinding",
      "path": {
        "__id__": 164
      },
      "proxy": null
    },
    "_channel": {
      "__id__": 167
    }
  },
  {
    "__type__": "cc.animation.TrackPath",
    "_paths": [
      {
        "__id__": 165
      },
      {
        "__id__": 166
      },
      "value"
    ]
  },
  {
    "__type__": "cc.animation.HierarchyPath",
    "path": "Parameters/PARAM_BODY_ANGLE_X"
  },
  {
    "__type__": "cc.animation.ComponentPath",
    "component": "CubismParameter"
  },
  {
    "__type__": "cc.animation.Channel",
    "_curve": {
      "__id__": 168
    }
  },
  {
    "__type__": "cc.RealCurve",
    "_times": [
      0,
      0.533,
      1.2,
      1.967,
      2.633,
      3.3,
      4
    ],
    "_values": [
      {
        "__type__": "cc.RealKeyframeValue",
        "interpolationMode": 0,
        "tangentWeightMode": 0,
        "value": 0,
        "rightTangent": 0,
        "rightTangentWeight": 0,
        "leftTangent": 0,
        "leftTangentWeight": 0,
        "easingMethod": 0,
        "__editorExtras__": null
      },
      {
        "__type__": "cc.RealKeyframeValue",
        "interpolationMode": 0,
        "tangentWeightMode": 0,
        "value": 1,
        "rightTangent": 0,
        "rightTangentWeight": 0,
        "leftTangent": 0,
        "leftTangentWeight": 0,
        "easingMethod": 0,
        "__editorExtras__": null
      },
      {
        "__type__": "cc.RealKeyframeValue",
        "interpolationMode": 0,
        "tangentWeightMode": 0,
        "value": -10,
        "rightTangent": 0,
        "rightTangentWeight": 0,
        "leftTangent": 0,
        "leftTangentWeight": 0,
        "easingMethod": 0,
        "__editorExtras__": null
      },
      {
        "__type__": "cc.RealKeyframeValue",
        "interpolationMode": 0,
        "tangentWeightMode": 0,
        "value": -3,
        "rightTangent": 0,
        "rightTangentWeight": 0,
        "leftTangent": 0,
        "leftTangentWeight": 0,
        "easingMethod": 0,
        "__editorExtras__": null
      },
      {
        "__type__": "cc.RealKeyframeValue",
        "interpolationMode": 0,
        "tangentWeightMode": 0,
        "value": -8,
        "rightTangent": 0,
        "rightTangentWeight": 0,
        "leftTangent": 0,
        "leftTangentWeight": 0,
        "easingMethod": 0,
        "__editorExtras__": null
      },
      {
        "__type__": "cc.RealKeyframeValue",
        "interpolationMode": 0,
        "tangentWeightMode": 0,
        "value": -5,
        "rightTangent": 0,
        "rightTangentWeight": 0,
        "leftTangent": 0,
        "leftTangentWeight": 0,
        "easingMethod": 0,
        "__editorExtras__": null
      },
      {
        "__type__": "cc.RealKeyframeValue",
        "interpolationMode": 0,
        "tangentWeightMode": 0,
        "value": -5,
        "rightTangent": 0,
        "rightTangentWeight": 0,
        "leftTangent": 0,
        "leftTangentWeight": 0,
        "easingMethod": 0,
        "__editorExtras__": null
      }
    ],
    "preExtrapolation": 1,
    "postExtrapolation": 1
  },
  {
    "__type__": "cc.animation.RealTrack",
    "_binding": {
      "__type__": "cc.animation.TrackBinding",
      "path": {
        "__id__": 170
      },
      "proxy": null
    },
    "_channel": {
      "__id__": 173
    }
  },
  {
    "__type__": "cc.animation.TrackPath",
    "_paths": [
      {
        "__id__": 171
      },
      {
        "__id__": 172
      },
      "value"
    ]
  },
  {
    "__type__": "cc.animation.HierarchyPath",
    "path": "Parameters/PARAM_BODY_ANGLE_Y"
  },
  {
    "__type__": "cc.animation.ComponentPath",
    "component": "CubismParameter"
  },
  {
    "__type__": "cc.animation.Channel",
    "_curve": {
      "__id__": 174
    }
  },
  {
    "__type__": "cc.RealCurve",
    "_times": [
      0,
      0.533,
      1.1,
      1.833,
      2.5,
      3.2,
      4
    ],
    "_values": [
      {
        "__type__": "cc.RealKeyframeValue",
        "interpolationMode": 0,
        "tangentWeightMode": 0,
        "value": 0,
        "rightTangent": 0,
        "rightTangentWeight": 0,
        "leftTangent": 0,
        "leftTangentWeight": 0,
        "easingMethod": 0,
        "__editorExtras__": null
      },
      {
        "__type__": "cc.RealKeyframeValue",
        "interpolationMode": 0,
        "tangentWeightMode": 0,
        "value": 7,
        "rightTangent": 0,
        "rightTangentWeight": 0,
        "leftTangent": 0,
        "leftTangentWeight": 0,
        "easingMethod": 0,
        "__editorExtras__": null
      },
      {
        "__type__": "cc.RealKeyframeValue",
        "interpolationMode": 0,
        "tangentWeightMode": 0,
        "value": -3,
        "rightTangent": 0,
        "rightTangentWeight": 0,
        "leftTangent": 0,
        "leftTangentWeight": 0,
        "easingMethod": 0,
        "__editorExtras__": null
      },
      {
        "__type__": "cc.RealKeyframeValue",
        "interpolationMode": 0,
        "tangentWeightMode": 0,
        "value": 0,
        "rightTangent": 0,
        "rightTangentWeight": 0,
        "leftTangent": 0,
        "leftTangentWeight": 0,
        "easingMethod": 0,
        "__editorExtras__": null
      },
      {
        "__type__": "cc.RealKeyframeValue",
        "interpolationMode": 0,
        "tangentWeightMode": 0,
        "value": -2,
        "rightTangent": 0,
        "rightTangentWeight": 0,
        "leftTangent": 0,
        "leftTangentWeight": 0,
        "easingMethod": 0,
        "__editorExtras__": null
      },
      {
        "__type__": "cc.RealKeyframeValue",
        "interpolationMode": 0,
        "tangentWeightMode": 0,
        "value": -1,
        "rightTangent": 0,
        "rightTangentWeight": 0,
        "leftTangent": 0,
        "leftTangentWeight": 0,
        "easingMethod": 0,
        "__editorExtras__": null
      },
      {
        "__type__": "cc.RealKeyframeValue",
        "interpolationMode": 0,
        "tangentWeightMode": 0,
        "value": -1,
        "rightTangent": 0,
        "rightTangentWeight": 0,
        "leftTangent": 0,
        "leftTangentWeight": 0,
        "easingMethod": 0,
        "__editorExtras__": null
      }
    ],
    "preExtrapolation": 1,
    "postExtrapolation": 1
  },
  {
    "__type__": "cc.animation.RealTrack",
    "_binding": {
      "__type__": "cc.animation.TrackBinding",
      "path": {
        "__id__": 176
      },
      "proxy": null
    },
    "_channel": {
      "__id__": 179
    }
  },
  {
    "__type__": "cc.animation.TrackPath",
    "_paths": [
      {
        "__id__": 177
      },
      {
        "__id__": 178
      },
      "value"
    ]
  },
  {
    "__type__": "cc.animation.HierarchyPath",
    "path": "Parameters/PARAM_BODY_ANGLE_Z"
  },
  {
    "__type__": "cc.animation.ComponentPath",
    "component": "CubismParameter"
  },
  {
    "__type__": "cc.animation.Channel",
    "_curve": {
      "__id__": 180
    }
  },
  {
    "__type__": "cc.RealCurve",
    "_times": [
      0,
      4
    ],
    "_values": [
      {
        "__type__": "cc.RealKeyframeValue",
        "interpolationMode": 0,
        "tangentWeightMode": 0,
        "value": 0,
        "rightTangent": 0,
        "rightTangentWeight": 0,
        "leftTangent": 0,
        "leftTangentWeight": 0,
        "easingMethod": 0,
        "__editorExtras__": null
      },
      {
        "__type__": "cc.RealKeyframeValue",
        "interpolationMode": 0,
        "tangentWeightMode": 0,
        "value": 0,
        "rightTangent": 0,
        "rightTangentWeight": 0,
        "leftTangent": 0,
        "leftTangentWeight": 0,
        "easingMethod": 0,
        "__editorExtras__": null
      }
    ],
    "preExtrapolation": 1,
    "postExtrapolation": 1
  },
  {
    "__type__": "cc.animation.RealTrack",
    "_binding": {
      "__type__": "cc.animation.TrackBinding",
      "path": {
        "__id__": 182
      },
      "proxy": null
    },
    "_channel": {
      "__id__": 185
    }
  },
  {
    "__type__": "cc.animation.TrackPath",
    "_paths": [
      {
        "__id__": 183
      },
      {
        "__id__": 184
      },
      "value"
    ]
  },
  {
    "__type__": "cc.animation.HierarchyPath",
    "path": "Parameters/PARAM_BODY"
  },
  {
    "__type__": "cc.animation.ComponentPath",
    "component": "CubismParameter"
  },
  {
    "__type__": "cc.animation.Channel",
    "_curve": {
      "__id__": 186
    }
  },
  {
    "__type__": "cc.RealCurve",
    "_times": [
      0,
      4
    ],
    "_values": [
      {
        "__type__": "cc.RealKeyframeValue",
        "interpolationMode": 0,
        "tangentWeightMode": 0,
        "value": 0,
        "rightTangent": 0,
        "rightTangentWeight": 0,
        "leftTangent": 0,
        "leftTangentWeight": 0,
        "easingMethod": 0,
        "__editorExtras__": null
      },
      {
        "__type__": "cc.RealKeyframeValue",
        "interpolationMode": 0,
        "tangentWeightMode": 0,
        "value": 0,
        "rightTangent": 0,
        "rightTangentWeight": 0,
        "leftTangent": 0,
        "leftTangentWeight": 0,
        "easingMethod": 0,
        "__editorExtras__": null
      }
    ],
    "preExtrapolation": 1,
    "postExtrapolation": 1
  },
  {
    "__type__": "cc.animation.RealTrack",
    "_binding": {
      "__type__": "cc.animation.TrackBinding",
      "path": {
        "__id__": 188
      },
      "proxy": null
    },
    "_channel": {
      "__id__": 191
    }
  },
  {
    "__type__": "cc.animation.TrackPath",
    "_paths": [
      {
        "__id__": 189
      },
      {
        "__id__": 190
      },
      "value"
    ]
  },
  {
    "__type__": "cc.animation.HierarchyPath",
    "path": "Parameters/PARAM_BREATH"
  },
  {
    "__type__": "cc.animation.ComponentPath",
    "component": "CubismParameter"
  },
  {
    "__type__": "cc.animation.Channel",
    "_curve": {
      "__id__": 192
    }
  },
  {
    "__type__": "cc.RealCurve",
    "_times": [
      0,
      4
    ],
    "_values": [
      {
        "__type__": "cc.RealKeyframeValue",
        "interpolationMode": 0,
        "tangentWeightMode": 0,
        "value": 0,
        "rightTangent": 0,
        "rightTangentWeight": 0,
        "leftTangent": 0,
        "leftTangentWeight": 0,
        "easingMethod": 0,
        "__editorExtras__": null
      },
      {
        "__type__": "cc.RealKeyframeValue",
        "interpolationMode": 0,
        "tangentWeightMode": 0,
        "value": 0,
        "rightTangent": 0,
        "rightTangentWeight": 0,
        "leftTangent": 0,
        "leftTangentWeight": 0,
        "easingMethod": 0,
        "__editorExtras__": null
      }
    ],
    "preExtrapolation": 1,
    "postExtrapolation": 1
  },
  {
    "__type__": "cc.animation.RealTrack",
    "_binding": {
      "__type__": "cc.animation.TrackBinding",
      "path": {
        "__id__": 194
      },
      "proxy": null
    },
    "_channel": {
      "__id__": 197
    }
  },
  {
    "__type__": "cc.animation.TrackPath",
    "_paths": [
      {
        "__id__": 195
      },
      {
        "__id__": 196
      },
      "value"
    ]
  },
  {
    "__type__": "cc.animation.HierarchyPath",
    "path": "Parameters/PARAM_HAIR_FRONT"
  },
  {
    "__type__": "cc.animation.ComponentPath",
    "component": "CubismParameter"
  },
  {
    "__type__": "cc.animation.Channel",
    "_curve": {
      "__id__": 198
    }
  },
  {
    "__type__": "cc.RealCurve",
    "_times": [
      0,
      4
    ],
    "_values": [
      {
        "__type__": "cc.RealKeyframeValue",
        "interpolationMode": 0,
        "tangentWeightMode": 0,
        "value": 0,
        "rightTangent": 0,
        "rightTangentWeight": 0,
        "leftTangent": 0,
        "leftTangentWeight": 0,
        "easingMethod": 0,
        "__editorExtras__": null
      },
      {
        "__type__": "cc.RealKeyframeValue",
        "interpolationMode": 0,
        "tangentWeightMode": 0,
        "value": 0,
        "rightTangent": 0,
        "rightTangentWeight": 0,
        "leftTangent": 0,
        "leftTangentWeight": 0,
        "easingMethod": 0,
        "__editorExtras__": null
      }
    ],
    "preExtrapolation": 1,
    "postExtrapolation": 1
  },
  {
    "__type__": "cc.animation.RealTrack",
    "_binding": {
      "__type__": "cc.animation.TrackBinding",
      "path": {
        "__id__": 200
      },
      "proxy": null
    },
    "_channel": {
      "__id__": 203
    }
  },
  {
    "__type__": "cc.animation.TrackPath",
    "_paths": [
      {
        "__id__": 201
      },
      {
        "__id__": 202
      },
      "value"
    ]
  },
  {
    "__type__": "cc.animation.HierarchyPath",
    "path": "Parameters/PARAM_HAIR_SIDE"
  },
  {
    "__type__": "cc.animation.ComponentPath",
    "component": "CubismParameter"
  },
  {
    "__type__": "cc.animation.Channel",
    "_curve": {
      "__id__": 204
    }
  },
  {
    "__type__": "cc.RealCurve",
    "_times": [
      0,
      4
    ],
    "_values": [
      {
        "__type__": "cc.RealKeyframeValue",
        "interpolationMode": 0,
        "tangentWeightMode": 0,
        "value": 0,
        "rightTangent": 0,
        "rightTangentWeight": 0,
        "leftTangent": 0,
        "leftTangentWeight": 0,
        "easingMethod": 0,
        "__editorExtras__": null
      },
      {
        "__type__": "cc.RealKeyframeValue",
        "interpolationMode": 0,
        "tangentWeightMode": 0,
        "value": 0,
        "rightTangent": 0,
        "rightTangentWeight": 0,
        "leftTangent": 0,
        "leftTangentWeight": 0,
        "easingMethod": 0,
        "__editorExtras__": null
      }
    ],
    "preExtrapolation": 1,
    "postExtrapolation": 1
  },
  {
    "__type__": "cc.animation.RealTrack",
    "_binding": {
      "__type__": "cc.animation.TrackBinding",
      "path": {
        "__id__": 206
      },
      "proxy": null
    },
    "_channel": {
      "__id__": 209
    }
  },
  {
    "__type__": "cc.animation.TrackPath",
    "_paths": [
      {
        "__id__": 207
      },
      {
        "__id__": 208
      },
      "value"
    ]
  },
  {
    "__type__": "cc.animation.HierarchyPath",
    "path": "Parameters/PARAM_HAIR_BACK"
  },
  {
    "__type__": "cc.animation.ComponentPath",
    "component": "CubismParameter"
  },
  {
    "__type__": "cc.animation.Channel",
    "_curve": {
      "__id__": 210
    }
  },
  {
    "__type__": "cc.RealCurve",
    "_times": [
      0,
      4
    ],
    "_values": [
      {
        "__type__": "cc.RealKeyframeValue",
        "interpolationMode": 0,
        "tangentWeightMode": 0,
        "value": 0,
        "rightTangent": 0,
        "rightTangentWeight": 0,
        "leftTangent": 0,
        "leftTangentWeight": 0,
        "easingMethod": 0,
        "__editorExtras__": null
      },
      {
        "__type__": "cc.RealKeyframeValue",
        "interpolationMode": 0,
        "tangentWeightMode": 0,
        "value": 0,
        "rightTangent": 0,
        "rightTangentWeight": 0,
        "leftTangent": 0,
        "leftTangentWeight": 0,
        "easingMethod": 0,
        "__editorExtras__": null
      }
    ],
    "preExtrapolation": 1,
    "postExtrapolation": 1
  },
  {
    "__type__": "cc.animation.RealTrack",
    "_binding": {
      "__type__": "cc.animation.TrackBinding",
      "path": {
        "__id__": 212
      },
      "proxy": null
    },
    "_channel": {
      "__id__": 215
    }
  },
  {
    "__type__": "cc.animation.TrackPath",
    "_paths": [
      {
        "__id__": 213
      },
      {
        "__id__": 214
      },
      "value"
    ]
  },
  {
    "__type__": "cc.animation.HierarchyPath",
    "path": "Parameters/PARAM_HAIR_FLUFFY"
  },
  {
    "__type__": "cc.animation.ComponentPath",
    "component": "CubismParameter"
  },
  {
    "__type__": "cc.animation.Channel",
    "_curve": {
      "__id__": 216
    }
  },
  {
    "__type__": "cc.RealCurve",
    "_times": [
      0,
      4
    ],
    "_values": [
      {
        "__type__": "cc.RealKeyframeValue",
        "interpolationMode": 0,
        "tangentWeightMode": 0,
        "value": 0,
        "rightTangent": 0,
        "rightTangentWeight": 0,
        "leftTangent": 0,
        "leftTangentWeight": 0,
        "easingMethod": 0,
        "__editorExtras__": null
      },
      {
        "__type__": "cc.RealKeyframeValue",
        "interpolationMode": 0,
        "tangentWeightMode": 0,
        "value": 0,
        "rightTangent": 0,
        "rightTangentWeight": 0,
        "leftTangent": 0,
        "leftTangentWeight": 0,
        "easingMethod": 0,
        "__editorExtras__": null
      }
    ],
    "preExtrapolation": 1,
    "postExtrapolation": 1
  },
  {
    "__type__": "cc.animation.RealTrack",
    "_binding": {
      "__type__": "cc.animation.TrackBinding",
      "path": {
        "__id__": 218
      },
      "proxy": null
    },
    "_channel": {
      "__id__": 221
    }
  },
  {
    "__type__": "cc.animation.TrackPath",
    "_paths": [
      {
        "__id__": 219
      },
      {
        "__id__": 220
      },
      "value"
    ]
  },
  {
    "__type__": "cc.animation.HierarchyPath",
    "path": "Parameters/PARAM_HAIR_FLUFFY_02"
  },
  {
    "__type__": "cc.animation.ComponentPath",
    "component": "CubismParameter"
  },
  {
    "__type__": "cc.animation.Channel",
    "_curve": {
      "__id__": 222
    }
  },
  {
    "__type__": "cc.RealCurve",
    "_times": [
      0,
      0.567,
      1,
      1.267,
      1.533,
      4
    ],
    "_values": [
      {
        "__type__": "cc.RealKeyframeValue",
        "interpolationMode": 0,
        "tangentWeightMode": 0,
        "value": 0,
        "rightTangent": 0,
        "rightTangentWeight": 0,
        "leftTangent": 0,
        "leftTangentWeight": 0,
        "easingMethod": 0,
        "__editorExtras__": null
      },
      {
        "__type__": "cc.RealKeyframeValue",
        "interpolationMode": 0,
        "tangentWeightMode": 0,
        "value": 1,
        "rightTangent": 0,
        "rightTangentWeight": 0,
        "leftTangent": 0,
        "leftTangentWeight": 0,
        "easingMethod": 0,
        "__editorExtras__": null
      },
      {
        "__type__": "cc.RealKeyframeValue",
        "interpolationMode": 0,
        "tangentWeightMode": 0,
        "value": -1,
        "rightTangent": 0,
        "rightTangentWeight": 0,
        "leftTangent": 0,
        "leftTangentWeight": 0,
        "easingMethod": 0,
        "__editorExtras__": null
      },
      {
        "__type__": "cc.RealKeyframeValue",
        "interpolationMode": 0,
        "tangentWeightMode": 0,
        "value": -0.757,
        "rightTangent": 0,
        "rightTangentWeight": 0,
        "leftTangent": 0,
        "leftTangentWeight": 0,
        "easingMethod": 0,
        "__editorExtras__": null
      },
      {
        "__type__": "cc.RealKeyframeValue",
        "interpolationMode": 0,
        "tangentWeightMode": 0,
        "value": -1,
        "rightTangent": 0,
        "rightTangentWeight": 0,
        "leftTangent": 0,
        "leftTangentWeight": 0,
        "easingMethod": 0,
        "__editorExtras__": null
      },
      {
        "__type__": "cc.RealKeyframeValue",
        "interpolationMode": 0,
        "tangentWeightMode": 0,
        "value": -1,
        "rightTangent": 0,
        "rightTangentWeight": 0,
        "leftTangent": 0,
        "leftTangentWeight": 0,
        "easingMethod": 0,
        "__editorExtras__": null
      }
    ],
    "preExtrapolation": 1,
    "postExtrapolation": 1
  },
  {
    "__type__": "cc.animation.RealTrack",
    "_binding": {
      "__type__": "cc.animation.TrackBinding",
      "path": {
        "__id__": 224
      },
      "proxy": null
    },
    "_channel": {
      "__id__": 227
    }
  },
  {
    "__type__": "cc.animation.TrackPath",
    "_paths": [
      {
        "__id__": 225
      },
      {
        "__id__": 226
      },
      "value"
    ]
  },
  {
    "__type__": "cc.animation.HierarchyPath",
    "path": "Parameters/PARAM_SKIRT"
  },
  {
    "__type__": "cc.animation.ComponentPath",
    "component": "CubismParameter"
  },
  {
    "__type__": "cc.animation.Channel",
    "_curve": {
      "__id__": 228
    }
  },
  {
    "__type__": "cc.RealCurve",
    "_times": [
      0,
      4
    ],
    "_values": [
      {
        "__type__": "cc.RealKeyframeValue",
        "interpolationMode": 0,
        "tangentWeightMode": 0,
        "value": 0,
        "rightTangent": 0,
        "rightTangentWeight": 0,
        "leftTangent": 0,
        "leftTangentWeight": 0,
        "easingMethod": 0,
        "__editorExtras__": null
      },
      {
        "__type__": "cc.RealKeyframeValue",
        "interpolationMode": 0,
        "tangentWeightMode": 0,
        "value": 0,
        "rightTangent": 0,
        "rightTangentWeight": 0,
        "leftTangent": 0,
        "leftTangentWeight": 0,
        "easingMethod": 0,
        "__editorExtras__": null
      }
    ],
    "preExtrapolation": 1,
    "postExtrapolation": 1
  },
  {
    "__type__": "cc.animation.RealTrack",
    "_binding": {
      "__type__": "cc.animation.TrackBinding",
      "path": {
        "__id__": 230
      },
      "proxy": null
    },
    "_channel": {
      "__id__": 233
    }
  },
  {
    "__type__": "cc.animation.TrackPath",
    "_paths": [
      {
        "__id__": 231
      },
      {
        "__id__": 232
      },
      "value"
    ]
  },
  {
    "__type__": "cc.animation.HierarchyPath",
    "path": "Parameters/PARAM_NECKTIE"
  },
  {
    "__type__": "cc.animation.ComponentPath",
    "component": "CubismParameter"
  },
  {
    "__type__": "cc.animation.Channel",
    "_curve": {
      "__id__": 234
    }
  },
  {
    "__type__": "cc.RealCurve",
    "_times": [
      0,
      4
    ],
    "_values": [
      {
        "__type__": "cc.RealKeyframeValue",
        "interpolationMode": 0,
        "tangentWeightMode": 0,
        "value": 0,
        "rightTangent": 0,
        "rightTangentWeight": 0,
        "leftTangent": 0,
        "leftTangentWeight": 0,
        "easingMethod": 0,
        "__editorExtras__": null
      },
      {
        "__type__": "cc.RealKeyframeValue",
        "interpolationMode": 0,
        "tangentWeightMode": 0,
        "value": 0,
        "rightTangent": 0,
        "rightTangentWeight": 0,
        "leftTangent": 0,
        "leftTangentWeight": 0,
        "easingMethod": 0,
        "__editorExtras__": null
      }
    ],
    "preExtrapolation": 1,
    "postExtrapolation": 1
  },
  {
    "__type__": "cc.animation.RealTrack",
    "_binding": {
      "__type__": "cc.animation.TrackBinding",
      "path": {
        "__id__": 236
      },
      "proxy": null
    },
    "_channel": {
      "__id__": 239
    }
  },
  {
    "__type__": "cc.animation.TrackPath",
    "_paths": [
      {
        "__id__": 237
      },
      {
        "__id__": 238
      },
      "value"
    ]
  },
  {
    "__type__": "cc.animation.HierarchyPath",
    "path": "Parameters/PARAM_ARM_L_01"
  },
  {
    "__type__": "cc.animation.ComponentPath",
    "component": "CubismParameter"
  },
  {
    "__type__": "cc.animation.Channel",
    "_curve": {
      "__id__": 240
    }
  },
  {
    "__type__": "cc.RealCurve",
    "_times": [
      0,
      0.533,
      1.133,
      4
    ],
    "_values": [
      {
        "__type__": "cc.RealKeyframeValue",
        "interpolationMode": 0,
        "tangentWeightMode": 0,
        "value": 0,
        "rightTangent": 0,
        "rightTangentWeight": 0,
        "leftTangent": 0,
        "leftTangentWeight": 0,
        "easingMethod": 0,
        "__editorExtras__": null
      },
      {
        "__type__": "cc.RealKeyframeValue",
        "interpolationMode": 0,
        "tangentWeightMode": 0,
        "value": 1,
        "rightTangent": 0,
        "rightTangentWeight": 0,
        "leftTangent": 0,
        "leftTangentWeight": 0,
        "easingMethod": 0,
        "__editorExtras__": null
      },
      {
        "__type__": "cc.RealKeyframeValue",
        "interpolationMode": 0,
        "tangentWeightMode": 0,
        "value": 0,
        "rightTangent": 0,
        "rightTangentWeight": 0,
        "leftTangent": 0,
        "leftTangentWeight": 0,
        "easingMethod": 0,
        "__editorExtras__": null
      },
      {
        "__type__": "cc.RealKeyframeValue",
        "interpolationMode": 0,
        "tangentWeightMode": 0,
        "value": 0,
        "rightTangent": 0,
        "rightTangentWeight": 0,
        "leftTangent": 0,
        "leftTangentWeight": 0,
        "easingMethod": 0,
        "__editorExtras__": null
      }
    ],
    "preExtrapolation": 1,
    "postExtrapolation": 1
  },
  {
    "__type__": "cc.animation.RealTrack",
    "_binding": {
      "__type__": "cc.animation.TrackBinding",
      "path": {
        "__id__": 242
      },
      "proxy": null
    },
    "_channel": {
      "__id__": 245
    }
  },
  {
    "__type__": "cc.animation.TrackPath",
    "_paths": [
      {
        "__id__": 243
      },
      {
        "__id__": 244
      },
      "value"
    ]
  },
  {
    "__type__": "cc.animation.HierarchyPath",
    "path": "Parameters/PARAM_ARM_L_02"
  },
  {
    "__type__": "cc.animation.ComponentPath",
    "component": "CubismParameter"
  },
  {
    "__type__": "cc.animation.Channel",
    "_curve": {
      "__id__": 246
    }
  },
  {
    "__type__": "cc.RealCurve",
    "_times": [
      0,
      0.533,
      1.167,
      4
    ],
    "_values": [
      {
        "__type__": "cc.RealKeyframeValue",
        "interpolationMode": 0,
        "tangentWeightMode": 0,
        "value": 0,
        "rightTangent": 0,
        "rightTangentWeight": 0,
        "leftTangent": 0,
        "leftTangentWeight": 0,
        "easingMethod": 0,
        "__editorExtras__": null
      },
      {
        "__type__": "cc.RealKeyframeValue",
        "interpolationMode": 0,
        "tangentWeightMode": 0,
        "value": 0,
        "rightTangent": 0,
        "rightTangentWeight": 0,
        "leftTangent": 0,
        "leftTangentWeight": 0,
        "easingMethod": 0,
        "__editorExtras__": null
      },
      {
        "__type__": "cc.RealKeyframeValue",
        "interpolationMode": 0,
        "tangentWeightMode": 0,
        "value": -5,
        "rightTangent": 0,
        "rightTangentWeight": 0,
        "leftTangent": 0,
        "leftTangentWeight": 0,
        "easingMethod": 0,
        "__editorExtras__": null
      },
      {
        "__type__": "cc.RealKeyframeValue",
        "interpolationMode": 0,
        "tangentWeightMode": 0,
        "value": -5,
        "rightTangent": 0,
        "rightTangentWeight": 0,
        "leftTangent": 0,
        "leftTangentWeight": 0,
        "easingMethod": 0,
        "__editorExtras__": null
      }
    ],
    "preExtrapolation": 1,
    "postExtrapolation": 1
  },
  {
    "__type__": "cc.animation.RealTrack",
    "_binding": {
      "__type__": "cc.animation.TrackBinding",
      "path": {
        "__id__": 248
      },
      "proxy": null
    },
    "_channel": {
      "__id__": 251
    }
  },
  {
    "__type__": "cc.animation.TrackPath",
    "_paths": [
      {
        "__id__": 249
      },
      {
        "__id__": 250
      },
      "value"
    ]
  },
  {
    "__type__": "cc.animation.HierarchyPath",
    "path": "Parameters/PARAM_ARM_L_03"
  },
  {
    "__type__": "cc.animation.ComponentPath",
    "component": "CubismParameter"
  },
  {
    "__type__": "cc.animation.Channel",
    "_curve": {
      "__id__": 252
    }
  },
  {
    "__type__": "cc.RealCurve",
    "_times": [
      0,
      4
    ],
    "_values": [
      {
        "__type__": "cc.RealKeyframeValue",
        "interpolationMode": 0,
        "tangentWeightMode": 0,
        "value": 0,
        "rightTangent": 0,
        "rightTangentWeight": 0,
        "leftTangent": 0,
        "leftTangentWeight": 0,
        "easingMethod": 0,
        "__editorExtras__": null
      },
      {
        "__type__": "cc.RealKeyframeValue",
        "interpolationMode": 0,
        "tangentWeightMode": 0,
        "value": 0,
        "rightTangent": 0,
        "rightTangentWeight": 0,
        "leftTangent": 0,
        "leftTangentWeight": 0,
        "easingMethod": 0,
        "__editorExtras__": null
      }
    ],
    "preExtrapolation": 1,
    "postExtrapolation": 1
  },
  {
    "__type__": "cc.animation.RealTrack",
    "_binding": {
      "__type__": "cc.animation.TrackBinding",
      "path": {
        "__id__": 254
      },
      "proxy": null
    },
    "_channel": {
      "__id__": 257
    }
  },
  {
    "__type__": "cc.animation.TrackPath",
    "_paths": [
      {
        "__id__": 255
      },
      {
        "__id__": 256
      },
      "value"
    ]
  },
  {
    "__type__": "cc.animation.HierarchyPath",
    "path": "Parameters/PARAM_ARM_L"
  },
  {
    "__type__": "cc.animation.ComponentPath",
    "component": "CubismParameter"
  },
  {
    "__type__": "cc.animation.Channel",
    "_curve": {
      "__id__": 258
    }
  },
  {
    "__type__": "cc.RealCurve",
    "_times": [
      0,
      4
    ],
    "_values": [
      {
        "__type__": "cc.RealKeyframeValue",
        "interpolationMode": 0,
        "tangentWeightMode": 0,
        "value": 0,
        "rightTangent": 0,
        "rightTangentWeight": 0,
        "leftTangent": 0,
        "leftTangentWeight": 0,
        "easingMethod": 0,
        "__editorExtras__": null
      },
      {
        "__type__": "cc.RealKeyframeValue",
        "interpolationMode": 0,
        "tangentWeightMode": 0,
        "value": 0,
        "rightTangent": 0,
        "rightTangentWeight": 0,
        "leftTangent": 0,
        "leftTangentWeight": 0,
        "easingMethod": 0,
        "__editorExtras__": null
      }
    ],
    "preExtrapolation": 1,
    "postExtrapolation": 1
  },
  {
    "__type__": "cc.animation.RealTrack",
    "_binding": {
      "__type__": "cc.animation.TrackBinding",
      "path": {
        "__id__": 260
      },
      "proxy": null
    },
    "_channel": {
      "__id__": 263
    }
  },
  {
    "__type__": "cc.animation.TrackPath",
    "_paths": [
      {
        "__id__": 261
      },
      {
        "__id__": 262
      },
      "value"
    ]
  },
  {
    "__type__": "cc.animation.HierarchyPath",
    "path": "Parameters/PARAM_ARM_R_01"
  },
  {
    "__type__": "cc.animation.ComponentPath",
    "component": "CubismParameter"
  },
  {
    "__type__": "cc.animation.Channel",
    "_curve": {
      "__id__": 264
    }
  },
  {
    "__type__": "cc.RealCurve",
    "_times": [
      0,
      0.533,
      1.133,
      4
    ],
    "_values": [
      {
        "__type__": "cc.RealKeyframeValue",
        "interpolationMode": 0,
        "tangentWeightMode": 0,
        "value": 0,
        "rightTangent": 0,
        "rightTangentWeight": 0,
        "leftTangent": 0,
        "leftTangentWeight": 0,
        "easingMethod": 0,
        "__editorExtras__": null
      },
      {
        "__type__": "cc.RealKeyframeValue",
        "interpolationMode": 0,
        "tangentWeightMode": 0,
        "value": 1,
        "rightTangent": 0,
        "rightTangentWeight": 0,
        "leftTangent": 0,
        "leftTangentWeight": 0,
        "easingMethod": 0,
        "__editorExtras__": null
      },
      {
        "__type__": "cc.RealKeyframeValue",
        "interpolationMode": 0,
        "tangentWeightMode": 0,
        "value": 0,
        "rightTangent": 0,
        "rightTangentWeight": 0,
        "leftTangent": 0,
        "leftTangentWeight": 0,
        "easingMethod": 0,
        "__editorExtras__": null
      },
      {
        "__type__": "cc.RealKeyframeValue",
        "interpolationMode": 0,
        "tangentWeightMode": 0,
        "value": 0,
        "rightTangent": 0,
        "rightTangentWeight": 0,
        "leftTangent": 0,
        "leftTangentWeight": 0,
        "easingMethod": 0,
        "__editorExtras__": null
      }
    ],
    "preExtrapolation": 1,
    "postExtrapolation": 1
  },
  {
    "__type__": "cc.animation.RealTrack",
    "_binding": {
      "__type__": "cc.animation.TrackBinding",
      "path": {
        "__id__": 266
      },
      "proxy": null
    },
    "_channel": {
      "__id__": 269
    }
  },
  {
    "__type__": "cc.animation.TrackPath",
    "_paths": [
      {
        "__id__": 267
      },
      {
        "__id__": 268
      },
      "value"
    ]
  },
  {
    "__type__": "cc.animation.HierarchyPath",
    "path": "Parameters/PARAM_ARM_R_02"
  },
  {
    "__type__": "cc.animation.ComponentPath",
    "component": "CubismParameter"
  },
  {
    "__type__": "cc.animation.Channel",
    "_curve": {
      "__id__": 270
    }
  },
  {
    "__type__": "cc.RealCurve",
    "_times": [
      0,
      0.533,
      1.133,
      4
    ],
    "_values": [
      {
        "__type__": "cc.RealKeyframeValue",
        "interpolationMode": 0,
        "tangentWeightMode": 0,
        "value": 0,
        "rightTangent": 0,
        "rightTangentWeight": 0,
        "leftTangent": 0,
        "leftTangentWeight": 0,
        "easingMethod": 0,
        "__editorExtras__": null
      },
      {
        "__type__": "cc.RealKeyframeValue",
        "interpolationMode": 0,
        "tangentWeightMode": 0,
        "value": 0,
        "rightTangent": 0,
        "rightTangentWeight": 0,
        "leftTangent": 0,
        "leftTangentWeight": 0,
        "easingMethod": 0,
        "__editorExtras__": null
      },
      {
        "__type__": "cc.RealKeyframeValue",
        "interpolationMode": 0,
        "tangentWeightMode": 0,
        "value": -5,
        "rightTangent": 0,
        "rightTangentWeight": 0,
        "leftTangent": 0,
        "leftTangentWeight": 0,
        "easingMethod": 0,
        "__editorExtras__": null
      },
      {
        "__type__": "cc.RealKeyframeValue",
        "interpolationMode": 0,
        "tangentWeightMode": 0,
        "value": -5,
        "rightTangent": 0,
        "rightTangentWeight": 0,
        "leftTangent": 0,
        "leftTangentWeight": 0,
        "easingMethod": 0,
        "__editorExtras__": null
      }
    ],
    "preExtrapolation": 1,
    "postExtrapolation": 1
  },
  {
    "__type__": "cc.animation.RealTrack",
    "_binding": {
      "__type__": "cc.animation.TrackBinding",
      "path": {
        "__id__": 272
      },
      "proxy": null
    },
    "_channel": {
      "__id__": 275
    }
  },
  {
    "__type__": "cc.animation.TrackPath",
    "_paths": [
      {
        "__id__": 273
      },
      {
        "__id__": 274
      },
      "value"
    ]
  },
  {
    "__type__": "cc.animation.HierarchyPath",
    "path": "Parameters/PARAM_ARM_R_03"
  },
  {
    "__type__": "cc.animation.ComponentPath",
    "component": "CubismParameter"
  },
  {
    "__type__": "cc.animation.Channel",
    "_curve": {
      "__id__": 276
    }
  },
  {
    "__type__": "cc.RealCurve",
    "_times": [
      0,
      4
    ],
    "_values": [
      {
        "__type__": "cc.RealKeyframeValue",
        "interpolationMode": 0,
        "tangentWeightMode": 0,
        "value": 0,
        "rightTangent": 0,
        "rightTangentWeight": 0,
        "leftTangent": 0,
        "leftTangentWeight": 0,
        "easingMethod": 0,
        "__editorExtras__": null
      },
      {
        "__type__": "cc.RealKeyframeValue",
        "interpolationMode": 0,
        "tangentWeightMode": 0,
        "value": 0,
        "rightTangent": 0,
        "rightTangentWeight": 0,
        "leftTangent": 0,
        "leftTangentWeight": 0,
        "easingMethod": 0,
        "__editorExtras__": null
      }
    ],
    "preExtrapolation": 1,
    "postExtrapolation": 1
  },
  {
    "__type__": "cc.animation.RealTrack",
    "_binding": {
      "__type__": "cc.animation.TrackBinding",
      "path": {
        "__id__": 278
      },
      "proxy": null
    },
    "_channel": {
      "__id__": 281
    }
  },
  {
    "__type__": "cc.animation.TrackPath",
    "_paths": [
      {
        "__id__": 279
      },
      {
        "__id__": 280
      },
      "value"
    ]
  },
  {
    "__type__": "cc.animation.HierarchyPath",
    "path": "Parameters/PARAM_ARM_R"
  },
  {
    "__type__": "cc.animation.ComponentPath",
    "component": "CubismParameter"
  },
  {
    "__type__": "cc.animation.Channel",
    "_curve": {
      "__id__": 282
    }
  },
  {
    "__type__": "cc.RealCurve",
    "_times": [
      0,
      4
    ],
    "_values": [
      {
        "__type__": "cc.RealKeyframeValue",
        "interpolationMode": 0,
        "tangentWeightMode": 0,
        "value": 0,
        "rightTangent": 0,
        "rightTangentWeight": 0,
        "leftTangent": 0,
        "leftTangentWeight": 0,
        "easingMethod": 0,
        "__editorExtras__": null
      },
      {
        "__type__": "cc.RealKeyframeValue",
        "interpolationMode": 0,
        "tangentWeightMode": 0,
        "value": 0,
        "rightTangent": 0,
        "rightTangentWeight": 0,
        "leftTangent": 0,
        "leftTangentWeight": 0,
        "easingMethod": 0,
        "__editorExtras__": null
      }
    ],
    "preExtrapolation": 1,
    "postExtrapolation": 1
  },
  {
    "__type__": "cc.animation.RealTrack",
    "_binding": {
      "__type__": "cc.animation.TrackBinding",
      "path": {
        "__id__": 284
      },
      "proxy": null
    },
    "_channel": {
      "__id__": 287
    }
  },
  {
    "__type__": "cc.animation.TrackPath",
    "_paths": [
      {
        "__id__": 285
      },
      {
        "__id__": 286
      },
      "value"
    ]
  },
  {
    "__type__": "cc.animation.HierarchyPath",
    "path": "Parameters/PARAM_HAND_SWITCH_L"
  },
  {
    "__type__": "cc.animation.ComponentPath",
    "component": "CubismParameter"
  },
  {
    "__type__": "cc.animation.Channel",
    "_curve": {
      "__id__": 288
    }
  },
  {
    "__type__": "cc.RealCurve",
    "_times": [
      0,
      4
    ],
    "_values": [
      {
        "__type__": "cc.RealKeyframeValue",
        "interpolationMode": 0,
        "tangentWeightMode": 0,
        "value": 0,
        "rightTangent": 0,
        "rightTangentWeight": 0,
        "leftTangent": 0,
        "leftTangentWeight": 0,
        "easingMethod": 0,
        "__editorExtras__": null
      },
      {
        "__type__": "cc.RealKeyframeValue",
        "interpolationMode": 0,
        "tangentWeightMode": 0,
        "value": 0,
        "rightTangent": 0,
        "rightTangentWeight": 0,
        "leftTangent": 0,
        "leftTangentWeight": 0,
        "easingMethod": 0,
        "__editorExtras__": null
      }
    ],
    "preExtrapolation": 1,
    "postExtrapolation": 1
  },
  {
    "__type__": "cc.animation.RealTrack",
    "_binding": {
      "__type__": "cc.animation.TrackBinding",
      "path": {
        "__id__": 290
      },
      "proxy": null
    },
    "_channel": {
      "__id__": 293
    }
  },
  {
    "__type__": "cc.animation.TrackPath",
    "_paths": [
      {
        "__id__": 291
      },
      {
        "__id__": 292
      },
      "value"
    ]
  },
  {
    "__type__": "cc.animation.HierarchyPath",
    "path": "Parameters/PARAM_HAND_SWITCH_R"
  },
  {
    "__type__": "cc.animation.ComponentPath",
    "component": "CubismParameter"
  },
  {
    "__type__": "cc.animation.Channel",
    "_curve": {
      "__id__": 294
    }
  },
  {
    "__type__": "cc.RealCurve",
    "_times": [
      0,
      4
    ],
    "_values": [
      {
        "__type__": "cc.RealKeyframeValue",
        "interpolationMode": 0,
        "tangentWeightMode": 0,
        "value": 0,
        "rightTangent": 0,
        "rightTangentWeight": 0,
        "leftTangent": 0,
        "leftTangentWeight": 0,
        "easingMethod": 0,
        "__editorExtras__": null
      },
      {
        "__type__": "cc.RealKeyframeValue",
        "interpolationMode": 0,
        "tangentWeightMode": 0,
        "value": 0,
        "rightTangent": 0,
        "rightTangentWeight": 0,
        "leftTangent": 0,
        "leftTangentWeight": 0,
        "easingMethod": 0,
        "__editorExtras__": null
      }
    ],
    "preExtrapolation": 1,
    "postExtrapolation": 1
  },
  {
    "__type__": "cc.animation.RealTrack",
    "_binding": {
      "__type__": "cc.animation.TrackBinding",
      "path": {
        "__id__": 296
      },
      "proxy": null
    },
    "_channel": {
      "__id__": 299
    }
  },
  {
    "__type__": "cc.animation.TrackPath",
    "_paths": [
      {
        "__id__": 297
      },
      {
        "__id__": 298
      },
      "value"
    ]
  },
  {
    "__type__": "cc.animation.HierarchyPath",
    "path": "Parameters/PARAM_HAND_L"
  },
  {
    "__type__": "cc.animation.ComponentPath",
    "component": "CubismParameter"
  },
  {
    "__type__": "cc.animation.Channel",
    "_curve": {
      "__id__": 300
    }
  },
  {
    "__type__": "cc.RealCurve",
    "_times": [
      0,
      4
    ],
    "_values": [
      {
        "__type__": "cc.RealKeyframeValue",
        "interpolationMode": 0,
        "tangentWeightMode": 0,
        "value": 0,
        "rightTangent": 0,
        "rightTangentWeight": 0,
        "leftTangent": 0,
        "leftTangentWeight": 0,
        "easingMethod": 0,
        "__editorExtras__": null
      },
      {
        "__type__": "cc.RealKeyframeValue",
        "interpolationMode": 0,
        "tangentWeightMode": 0,
        "value": 0,
        "rightTangent": 0,
        "rightTangentWeight": 0,
        "leftTangent": 0,
        "leftTangentWeight": 0,
        "easingMethod": 0,
        "__editorExtras__": null
      }
    ],
    "preExtrapolation": 1,
    "postExtrapolation": 1
  },
  {
    "__type__": "cc.animation.RealTrack",
    "_binding": {
      "__type__": "cc.animation.TrackBinding",
      "path": {
        "__id__": 302
      },
      "proxy": null
    },
    "_channel": {
      "__id__": 305
    }
  },
  {
    "__type__": "cc.animation.TrackPath",
    "_paths": [
      {
        "__id__": 303
      },
      {
        "__id__": 304
      },
      "value"
    ]
  },
  {
    "__type__": "cc.animation.HierarchyPath",
    "path": "Parameters/PARAM_HAND_R"
  },
  {
    "__type__": "cc.animation.ComponentPath",
    "component": "CubismParameter"
  },
  {
    "__type__": "cc.animation.Channel",
    "_curve": {
      "__id__": 306
    }
  },
  {
    "__type__": "cc.RealCurve",
    "_times": [
      0,
      4
    ],
    "_values": [
      {
        "__type__": "cc.RealKeyframeValue",
        "interpolationMode": 0,
        "tangentWeightMode": 0,
        "value": 0,
        "rightTangent": 0,
        "rightTangentWeight": 0,
        "leftTangent": 0,
        "leftTangentWeight": 0,
        "easingMethod": 0,
        "__editorExtras__": null
      },
      {
        "__type__": "cc.RealKeyframeValue",
        "interpolationMode": 0,
        "tangentWeightMode": 0,
        "value": 0,
        "rightTangent": 0,
        "rightTangentWeight": 0,
        "leftTangent": 0,
        "leftTangentWeight": 0,
        "easingMethod": 0,
        "__editorExtras__": null
      }
    ],
    "preExtrapolation": 1,
    "postExtrapolation": 1
  },
  {
    "__type__": "cc.animation.RealTrack",
    "_binding": {
      "__type__": "cc.animation.TrackBinding",
      "path": {
        "__id__": 308
      },
      "proxy": null
    },
    "_channel": {
      "__id__": 311
    }
  },
  {
    "__type__": "cc.animation.TrackPath",
    "_paths": [
      {
        "__id__": 309
      },
      {
        "__id__": 310
      },
      "value"
    ]
  },
  {
    "__type__": "cc.animation.HierarchyPath",
    "path": "Parameters/PARAM_PONPON"
  },
  {
    "__type__": "cc.animation.ComponentPath",
    "component": "CubismParameter"
  },
  {
    "__type__": "cc.animation.Channel",
    "_curve": {
      "__id__": 312
    }
  },
  {
    "__type__": "cc.RealCurve",
    "_times": [
      0,
      4
    ],
    "_values": [
      {
        "__type__": "cc.RealKeyframeValue",
        "interpolationMode": 0,
        "tangentWeightMode": 0,
        "value": 0,
        "rightTangent": 0,
        "rightTangentWeight": 0,
        "leftTangent": 0,
        "leftTangentWeight": 0,
        "easingMethod": 0,
        "__editorExtras__": null
      },
      {
        "__type__": "cc.RealKeyframeValue",
        "interpolationMode": 0,
        "tangentWeightMode": 0,
        "value": 0,
        "rightTangent": 0,
        "rightTangentWeight": 0,
        "leftTangent": 0,
        "leftTangentWeight": 0,
        "easingMethod": 0,
        "__editorExtras__": null
      }
    ],
    "preExtrapolation": 1,
    "postExtrapolation": 1
  }
]